{
  "time": 1642598158033,
  "first10": [
    {
      "userId": 7013930982571286000,
      "score": 58111027,
      "rank": 1,
      "isOwn": false,
      "name": "DNL★霜月凜✽涵",
      "userCard": {
        "cardId": 157,
        "level": 60,
        "masterRank": 5,
        "specialTrainingStatus": "done",
        "defaultImage": "special_training"
      },
      "userProfile": {
        "userId": 7013930982571286000,
        "word": "感謝推車組 排班組 技術組的幫忙 你們辛苦了",
        "honorId1": 182,
        "honorLevel1": 1,
        "honorId2": 2,
        "honorLevel2": 1,
        "honorId3": 114,
        "honorLevel3": 1,
        "twitterId": "",
        "profileImageType": "leader"
      },
      "userCheerfulCarnival": {}
    },
    {
      "userId": 7014345925502098000,
      "score": 33333333,
      "rank": 2,
      "isOwn": false,
      "name": "狼玥",
      "userCard": {
        "cardId": 157,
        "level": 60,
        "masterRank": 5,
        "specialTrainingStatus": "done",
        "defaultImage": "special_training"
      },
      "userProfile": {
        "userId": 7014345925502098000,
        "word": "LN一生推",
        "honorId1": 207,
        "honorLevel1": 4,
        "honorId2": 5,
        "honorLevel2": 5,
        "honorId3": 1,
        "honorLevel3": 5,
        "twitterId": "",
        "profileImageType": "leader"
      },
      "userCheerfulCarnival": {}
    },
    {
      "userId": 7014120160122510000,
      "score": 30000000,
      "rank": 3,
      "isOwn": false,
      "name": "隨意的黑色閃電",
      "userCard": {
        "cardId": 155,
        "level": 60,
        "masterRank": 0,
        "specialTrainingStatus": "done",
        "defaultImage": "special_training"
      },
      "userProfile": {
        "userId": 7014120160122510000,
        "word": "感謝DC群每位跑者和推車員的互相幫忙，大家辛苦了！",
        "honorId1": 9,
        "honorLevel1": 3,
        "honorId2": 115,
        "honorLevel2": 1,
        "honorId3": 118,
        "honorLevel3": 3,
        "twitterId": "",
        "profileImageType": "leader"
      },
      "userCheerfulCarnival": {}
    },
    {
      "userId": 7013400152862088000,
      "score": 21000111,
      "rank": 4,
      "isOwn": false,
      "name": "小喵♫邁入死亡",
      "userCard": {
        "cardId": 157,
        "level": 60,
        "masterRank": 5,
        "specialTrainingStatus": "done",
        "defaultImage": "special_training"
      },
      "userProfile": {
        "userId": 7013400152862088000,
        "word": "T4生日禮物♥各位辛苦了，控分成功",
        "honorId1": 115,
        "honorLevel1": 1,
        "honorId2": 357,
        "honorLevel2": 1,
        "honorId3": 338,
        "honorLevel3": 1,
        "twitterId": "",
        "profileImageType": "leader"
      },
      "userCheerfulCarnival": {}
    },
    {
      "userId": 7013400564893687000,
      "score": 17171717,
      "rank": 5,
      "isOwn": false,
      "name": "szc.__",
      "userCard": {
        "cardId": 110,
        "level": 60,
        "masterRank": 0,
        "specialTrainingStatus": "done",
        "defaultImage": "original"
      },
      "userProfile": {
        "userId": 7013400564893687000,
        "word": "まふゆ穂波一歌こはねルカ : )",
        "honorId1": 420,
        "honorLevel1": 1,
        "honorId2": 9,
        "honorLevel2": 4,
        "honorId3": 112,
        "honorLevel3": 1,
        "twitterId": "",
        "profileImageType": "leader"
      },
      "userCheerfulCarnival": {}
    },
    {
      "userId": 7015445868975414000,
      "score": 17032591,
      "rank": 6,
      "isOwn": false,
      "name": "Min@我們終將重逢",
      "userCard": {
        "cardId": 157,
        "level": 60,
        "masterRank": 5,
        "specialTrainingStatus": "done",
        "defaultImage": "special_training"
      },
      "userProfile": {
        "userId": 7015445868975414000,
        "word": "欸嘿~",
        "honorId1": 1,
        "honorLevel1": 5,
        "honorId2": 5,
        "honorLevel2": 5,
        "honorId3": 9,
        "honorLevel3": 4,
        "twitterId": "",
        "profileImageType": "leader"
      },
      "userCheerfulCarnival": {}
    },
    {
      "userId": 7014401641814433000,
      "score": 17000108,
      "rank": 7,
      "isOwn": false,
      "name": "哲／0108志步生日",
      "userCard": {
        "cardId": 118,
        "level": 30,
        "masterRank": 5,
        "specialTrainingStatus": "not_doing",
        "defaultImage": "original"
      },
      "userProfile": {
        "userId": 7014401641814433000,
        "word": "感謝プロセカ討論區的各位推車跑者與技術人員！",
        "honorId1": 13,
        "honorLevel1": 5,
        "honorId2": 233,
        "honorLevel2": 1,
        "honorId3": 207,
        "honorLevel3": 1,
        "twitterId": "",
        "profileImageType": "leader"
      },
      "userCheerfulCarnival": {}
    },
    {
      "userId": 7013611844694810000,
      "score": 16381027,
      "rank": 8,
      "isOwn": false,
      "name": "Axia吃大阪燒",
      "userCard": {
        "cardId": 158,
        "level": 50,
        "masterRank": 5,
        "specialTrainingStatus": "done",
        "defaultImage": "special_training"
      },
      "userProfile": {
        "userId": 7013611844694810000,
        "word": "icsk不結婚天地難容",
        "honorId1": 129,
        "honorLevel1": 1,
        "honorId2": 1,
        "honorLevel2": 5,
        "honorId3": 5,
        "honorLevel3": 5,
        "twitterId": "",
        "profileImageType": "leader"
      },
      "userCheerfulCarnival": {}
    },
    {
      "userId": 7021074434027101000,
      "score": 16356861,
      "rank": 9,
      "isOwn": false,
      "name": "名稱最多僅能輸入十字",
      "userCard": {
        "cardId": 157,
        "level": 60,
        "masterRank": 5,
        "specialTrainingStatus": "done",
        "defaultImage": "special_training"
      },
      "userProfile": {
        "userId": 7021074434027101000,
        "word": "英文數學要怎麼考才能沒15級分？",
        "honorId1": 1,
        "honorLevel1": 5,
        "honorId2": 447,
        "honorLevel2": 1,
        "honorId3": 357,
        "honorLevel3": 1,
        "twitterId": "",
        "profileImageType": "leader"
      },
      "userCheerfulCarnival": {}
    },
    {
      "userId": 7014025541384936000,
      "score": 16333333,
      "rank": 10,
      "isOwn": false,
      "name": "Honone",
      "userCard": {
        "cardId": 157,
        "level": 60,
        "masterRank": 0,
        "specialTrainingStatus": "done",
        "defaultImage": "special_training"
      },
      "userProfile": {
        "userId": 7014025541384936000,
        "word": "感謝名位幫忙推車及一起跑的各位大大",
        "honorId1": 207,
        "honorLevel1": 2,
        "honorId2": 187,
        "honorLevel2": 1,
        "honorId3": 123,
        "honorLevel3": 3,
        "twitterId": "",
        "profileImageType": "leader"
      },
      "userCheerfulCarnival": {}
    }
  ],
  "rank20": [
    {
      "userId": 7022487868086148000,
      "score": 8395275,
      "rank": 20,
      "isOwn": false,
      "name": "WEFR",
      "userCard": {
        "cardId": 11,
        "level": 50,
        "masterRank": 0,
        "specialTrainingStatus": "done",
        "defaultImage": "special_training"
      },
      "userProfile": {
        "userId": 7022487868086148000,
        "word": "^v^",
        "honorId1": 339,
        "honorLevel1": 1,
        "honorId2": 9,
        "honorLevel2": 3,
        "honorId3": 232,
        "honorLevel3": 1,
        "twitterId": "",
        "profileImageType": "leader"
      },
      "userCheerfulCarnival": {}
    }
  ],
  "rank30": [
    {
      "userId": 7017066499353550000,
      "score": 6257530,
      "rank": 30,
      "isOwn": false,
      "name": "凜／保T50",
      "userCard": {
        "cardId": 109,
        "level": 60,
        "masterRank": 0,
        "specialTrainingStatus": "done",
        "defaultImage": "special_training"
      },
      "userProfile": {
        "userId": 7017066499353550000,
        "word": "朋友輪流代打威力無限大",
        "honorId1": 197,
        "honorLevel1": 1,
        "honorId2": 1,
        "honorLevel2": 4,
        "honorId3": 323,
        "honorLevel3": 1,
        "twitterId": "",
        "profileImageType": "leader"
      },
      "userCheerfulCarnival": {}
    }
  ],
  "rank40": [
    {
      "userId": 7026424108665806000,
      "score": 5518012,
      "rank": 40,
      "isOwn": false,
      "name": "雨滴疲憊",
      "userCard": {
        "cardId": 137,
        "level": 50,
        "masterRank": 5,
        "specialTrainingStatus": "done",
        "defaultImage": "special_training"
      },
      "userProfile": {
        "userId": 7026424108665806000,
        "word": "希望こはね能帶杏來(˘̩̩̩ε˘̩ƪ)",
        "honorId1": 49,
        "honorLevel1": 4,
        "honorId2": 37,
        "honorLevel2": 4,
        "honorId3": 450,
        "honorLevel3": 1,
        "twitterId": "",
        "profileImageType": "leader"
      },
      "userCheerfulCarnival": {}
    }
  ],
  "rank50": [
    {
      "userId": 7030302034645638000,
      "score": 5168178,
      "rank": 50,
      "isOwn": false,
      "name": "Michaell",
      "userCard": {
        "cardId": 11,
        "level": 50,
        "masterRank": 5,
        "specialTrainingStatus": "done",
        "defaultImage": "special_training"
      },
      "userProfile": {
        "userId": 7030302034645638000,
        "word": "",
        "honorId1": 131,
        "honorLevel1": 1,
        "honorId2": 132,
        "honorLevel2": 1,
        "honorId3": 133,
        "honorLevel3": 1,
        "twitterId": "",
        "profileImageType": "leader"
      },
      "userCheerfulCarnival": {}
    }
  ],
  "rank100": [
    {
      "userId": 7018100469805440000,
      "score": 3683243,
      "rank": 100,
      "isOwn": false,
      "name": "～蝶夢～",
      "userCard": {
        "cardId": 145,
        "level": 56,
        "masterRank": 0,
        "specialTrainingStatus": "done",
        "defaultImage": "special_training"
      },
      "userProfile": {
        "userId": 7018100469805440000,
        "word": "目標：FC初音未來的消失master",
        "honorId1": 1,
        "honorLevel1": 4,
        "honorId2": 81,
        "honorLevel2": 4,
        "honorId3": 65,
        "honorLevel3": 3,
        "twitterId": "",
        "profileImageType": "leader"
      },
      "userCheerfulCarnival": {}
    }
  ],
  "rank200": [
    {
      "userId": 7026943218461859000,
      "score": 2324402,
      "rank": 200,
      "isOwn": false,
      "name": "ஒPAKLAMஜ",
      "userCard": {
        "cardId": 155,
        "level": 60,
        "masterRank": 0,
        "specialTrainingStatus": "done",
        "defaultImage": "special_training"
      },
      "userProfile": {
        "userId": 7026943218461859000,
        "word": "",
        "honorId1": 145,
        "honorLevel1": 1,
        "honorId2": 449,
        "honorLevel2": 1,
        "honorId3": 420,
        "honorLevel3": 1,
        "twitterId": "",
        "profileImageType": "leader"
      },
      "userCheerfulCarnival": {}
    }
  ],
  "rank300": [
    {
      "userId": 7013484084358077000,
      "score": 2006106,
      "rank": 300,
      "isOwn": false,
      "name": "墨羽貼到飄飄了耶♪",
      "userCard": {
        "cardId": 135,
        "level": 60,
        "masterRank": 5,
        "specialTrainingStatus": "done",
        "defaultImage": "special_training"
      },
      "userProfile": {
        "userId": 7013484084358077000,
        "word": "18期拼T10。DC:墨羽#7473      寶貝我愛妳～",
        "honorId1": 33,
        "honorLevel1": 5,
        "honorId2": 362,
        "honorLevel2": 1,
        "honorId3": 123,
        "honorLevel3": 1,
        "twitterId": "",
        "profileImageType": "leader"
      },
      "userCheerfulCarnival": {}
    }
  ],
  "rank400": [
    {
      "userId": 7013475096052604000,
      "score": 1871636,
      "rank": 400,
      "isOwn": false,
      "name": "歐陽阿明",
      "userCard": {
        "cardId": 155,
        "level": 60,
        "masterRank": 0,
        "specialTrainingStatus": "done",
        "defaultImage": "special_training"
      },
      "userProfile": {
        "userId": 7013475096052604000,
        "word": "對不起了學測",
        "honorId1": 1,
        "honorLevel1": 3,
        "honorId2": 206,
        "honorLevel2": 3,
        "honorId3": 5,
        "honorLevel3": 2,
        "twitterId": "",
        "profileImageType": "leader"
      },
      "userCheerfulCarnival": {}
    }
  ],
  "rank500": [
    {
      "userId": 7014096159174139000,
      "score": 1845276,
      "rank": 500,
      "isOwn": false,
      "name": "小壽司500壓線 汗",
      "userCard": {
        "cardId": 132,
        "level": 50,
        "masterRank": 0,
        "specialTrainingStatus": "done",
        "defaultImage": "special_training"
      },
      "userProfile": {
        "userId": 7014096159174139000,
        "word": "17雫遙19瑞希22瑞希23雫遙/目前碎石次數23",
        "honorId1": 77,
        "honorLevel1": 3,
        "honorId2": 29,
        "honorLevel2": 3,
        "honorId3": 21,
        "honorLevel3": 3,
        "twitterId": "",
        "profileImageType": "leader"
      },
      "userCheerfulCarnival": {}
    }
  ],
  "rank1000": [
    {
      "userId": 7031213630192410000,
      "score": 1552257,
      "rank": 1000,
      "isOwn": false,
      "name": "咲希泡的梅乾茶 且~",
      "userCard": {
        "cardId": 153,
        "level": 50,
        "masterRank": 5,
        "specialTrainingStatus": "done",
        "defaultImage": "special_training"
      },
      "userProfile": {
        "userId": 7031213630192410000,
        "word": "女兒節咲希還要等到春季...QAQ!!",
        "honorId1": 5,
        "honorLevel1": 4,
        "honorId2": 112,
        "honorLevel2": 1,
        "honorId3": 206,
        "honorLevel3": 4,
        "twitterId": "",
        "profileImageType": "leader"
      },
      "userCheerfulCarnival": {}
    }
  ],
  "rank2000": [
    {
      "userId": 7014375737067249000,
      "score": 1223909,
      "rank": 2000,
      "isOwn": false,
      "name": "璃櫻日華",
      "userCard": {
        "cardId": 119,
        "level": 54,
        "masterRank": 0,
        "specialTrainingStatus": "done",
        "defaultImage": "special_training"
      },
      "userProfile": {
        "userId": 7014375737067249000,
        "word": "我會打27了ヽ(✿ﾟ▽ﾟ)ノ",
        "honorId1": 101,
        "honorLevel1": 3,
        "honorId2": 89,
        "honorLevel2": 2,
        "honorId3": 397,
        "honorLevel3": 1,
        "twitterId": "",
        "profileImageType": "leader"
      },
      "userCheerfulCarnival": {}
    }
  ],
  "rank3000": [
    {
      "userId": 7014783508409474000,
      "score": 1077238,
      "rank": 3000,
      "isOwn": false,
      "name": "月凜",
      "userCard": {
        "cardId": 119,
        "level": 60,
        "masterRank": 0,
        "specialTrainingStatus": "done",
        "defaultImage": "special_training"
      },
      "userProfile": {
        "userId": 7014783508409474000,
        "word": "10/3開始、Twitter@yuehrin",
        "honorId1": 415,
        "honorLevel1": 1,
        "honorId2": 57,
        "honorLevel2": 5,
        "honorId3": 61,
        "honorLevel3": 4,
        "twitterId": "",
        "profileImageType": "leader"
      },
      "userCheerfulCarnival": {}
    }
  ],
  "rank4000": [
    {
      "userId": 7025479889205698000,
      "score": 983863,
      "rank": 4000,
      "isOwn": false,
      "name": "|VN|Tỏuu☂",
      "userCard": {
        "cardId": 13,
        "level": 20,
        "masterRank": 0,
        "specialTrainingStatus": "not_doing",
        "defaultImage": "original"
      },
      "userProfile": {
        "userId": 7025479889205698000,
        "word": "☂ VN",
        "honorId1": 45,
        "honorLevel1": 3,
        "honorId2": 41,
        "honorLevel2": 2,
        "honorId3": 453,
        "honorLevel3": 1,
        "twitterId": "",
        "profileImageType": "leader"
      },
      "userCheerfulCarnival": {}
    }
  ],
  "rank5000": [
    {
      "userId": 7021802142511980000,
      "score": 925208,
      "rank": 5000,
      "isOwn": false,
      "name": "想要四星qq",
      "userCard": {
        "cardId": 115,
        "level": 60,
        "masterRank": 3,
        "specialTrainingStatus": "done",
        "defaultImage": "original"
      },
      "userProfile": {
        "userId": 7021802142511980000,
        "word": "非洲人(´；Д；`)",
        "honorId1": 65,
        "honorLevel1": 4,
        "honorId2": 101,
        "honorLevel2": 2,
        "honorId3": 347,
        "honorLevel3": 1,
        "twitterId": "",
        "profileImageType": "leader"
      },
      "userCheerfulCarnival": {}
    }
  ],
  "rank10000": [
    {
      "userId": 7013387307055259000,
      "score": 615226,
      "rank": 10000,
      "isOwn": false,
      "name": "メイテイ",
      "userCard": {
        "cardId": 119,
        "level": 55,
        "masterRank": 0,
        "specialTrainingStatus": "done",
        "defaultImage": "special_training"
      },
      "userProfile": {
        "userId": 7013387307055259000,
        "word": "",
        "honorId1": 105,
        "honorLevel1": 1,
        "honorId2": 107,
        "honorLevel2": 1,
        "honorId3": 130,
        "honorLevel3": 1,
        "twitterId": "",
        "profileImageType": "leader"
      },
      "userCheerfulCarnival": {}
    }
  ],
  "rank20000": [
    {
      "userId": 7016003172015545000,
      "score": 371711,
      "rank": 20000,
      "isOwn": false,
      "name": "一日一月",
      "userCard": {
        "cardId": 11,
        "level": 35,
        "masterRank": 0,
        "specialTrainingStatus": "not_doing",
        "defaultImage": "original"
      },
      "userProfile": {
        "userId": 7016003172015545000,
        "word": "",
        "honorId1": 118,
        "honorLevel1": 2,
        "honorId2": 85,
        "honorLevel2": 1,
        "honorId3": 89,
        "honorLevel3": 1,
        "twitterId": "",
        "profileImageType": "leader"
      },
      "userCheerfulCarnival": {}
    }
  ],
  "rank30000": [
    {
      "userId": 7014030399647243000,
      "score": 267761,
      "rank": 30000,
      "isOwn": false,
      "name": "奈奈",
      "userCard": {
        "cardId": 109,
        "level": 60,
        "masterRank": 0,
        "specialTrainingStatus": "done",
        "defaultImage": "special_training"
      },
      "userProfile": {
        "userId": 7014030399647243000,
        "word": "( • ̀ω•́ )✧",
        "honorId1": 1,
        "honorLevel1": 3,
        "honorId2": 435,
        "honorLevel2": 1,
        "honorId3": 427,
        "honorLevel3": 1,
        "twitterId": "",
        "profileImageType": "leader"
      },
      "userCheerfulCarnival": {}
    }
  ],
  "rank40000": [
    {
      "userId": 7014111328545660000,
      "score": 198076,
      "rank": 40000,
      "isOwn": false,
      "name": "世界之音",
      "userCard": {
        "cardId": 159,
        "level": 9,
        "masterRank": 0,
        "specialTrainingStatus": "not_doing",
        "defaultImage": "original"
      },
      "userProfile": {
        "userId": 7014111328545660000,
        "word": "",
        "honorId1": 105,
        "honorLevel1": 1,
        "honorId2": 114,
        "honorLevel2": 1,
        "honorId3": 111,
        "honorLevel3": 1,
        "twitterId": "",
        "profileImageType": "leader"
      },
      "userCheerfulCarnival": {}
    }
  ],
  "rank50000": [
    {
      "userId": 7048433156499955000,
      "score": 140585,
      "rank": 50000,
      "isOwn": false,
      "name": "168",
      "userCard": {
        "cardId": 85,
        "level": 30,
        "masterRank": 0,
        "specialTrainingStatus": "not_doing",
        "defaultImage": "original"
      },
      "userProfile": {
        "userId": 7048433156499955000,
        "profileImageType": "leader"
      },
      "userCheerfulCarnival": {}
    }
  ],
  "rank100000": [
    {
      "userId": 7013382862082858000,
      "score": 15525,
      "rank": 100000,
      "isOwn": false,
      "name": "wryyy",
      "userCard": {
        "cardId": 82,
        "level": 7,
        "masterRank": 0,
        "specialTrainingStatus": "not_doing",
        "defaultImage": "original"
      },
      "userProfile": {
        "userId": 7013382862082858000,
        "profileImageType": "leader"
      },
      "userCheerfulCarnival": {}
    }
  ]
}