{
  "time": 1650374158044,
  "first10": [
    {
      "userId": 7022004926725348000,
      "score": 150827430,
      "rank": 1,
      "isOwn": false,
      "name": "DNL*5v*小紫",
      "userCard": {
        "cardId": 195,
        "level": 60,
        "masterRank": 5,
        "specialTrainingStatus": "done",
        "defaultImage": "special_training"
      },
      "userProfile": {
        "userId": 7022004926725348000,
        "word": "关于此次事件：bit.ly/twsktea",
        "honorId1": 78,
        "honorLevel1": 2,
        "honorId2": 436,
        "honorLevel2": 1,
        "honorId3": 383,
        "honorLevel3": 1,
        "twitterId": "",
        "profileImageType": "leader"
      },
      "userCheerfulCarnival": {}
    },
    {
      "userId": 7013655884333194000,
      "score": 136404210,
      "rank": 2,
      "isOwn": false,
      "name": "維摩詰",
      "userCard": {
        "cardId": 204,
        "level": 60,
        "masterRank": 5,
        "specialTrainingStatus": "done",
        "defaultImage": "original"
      },
      "userProfile": {
        "userId": 7013655884333194000,
        "word": "言語道斷 心行處滅",
        "honorId1": 560,
        "honorLevel1": 1,
        "honorId2": 74,
        "honorLevel2": 2,
        "honorId3": 658,
        "honorLevel3": 1,
        "twitterId": "",
        "profileImageType": "leader"
      },
      "userCheerfulCarnival": {}
    },
    {
      "userId": 7017828007192763000,
      "score": 72000127,
      "rank": 3,
      "isOwn": false,
      "name": "番茄火鍋|ɴɴᴀ",
      "userCard": {
        "cardId": 204,
        "level": 60,
        "masterRank": 5,
        "specialTrainingStatus": "done",
        "defaultImage": "original"
      },
      "userProfile": {
        "userId": 7017828007192763000,
        "word": "",
        "honorId1": 247,
        "honorLevel1": 1,
        "honorId2": 609,
        "honorLevel2": 1,
        "honorId3": 407,
        "honorLevel3": 1,
        "twitterId": "",
        "profileImageType": "leader"
      },
      "userCheerfulCarnival": {}
    },
    {
      "userId": 7068466648600124000,
      "score": 57637882,
      "rank": 4,
      "isOwn": false,
      "name": "₥Ⱡ₵悠Yu工商時間",
      "userCard": {
        "cardId": 204,
        "level": 60,
        "masterRank": 5,
        "specialTrainingStatus": "done",
        "defaultImage": "special_training"
      },
      "userProfile": {
        "userId": 7068466648600124000,
        "word": "活動完結後就回家鄕耕田了",
        "honorId1": 660,
        "honorLevel1": 1,
        "honorId2": 533,
        "honorLevel2": 1,
        "honorId3": 77,
        "honorLevel3": 3,
        "twitterId": "",
        "profileImageType": "leader"
      },
      "userCheerfulCarnival": {}
    },
    {
      "userId": 7015348262785900000,
      "score": 43045218,
      "rank": 5,
      "isOwn": false,
      "name": "₥Ⱡ₵Kami",
      "userCard": {
        "cardId": 202,
        "level": 60,
        "masterRank": 5,
        "specialTrainingStatus": "done",
        "defaultImage": "special_training"
      },
      "userProfile": {
        "userId": 7015348262785900000,
        "word": "沒事就來吸瑞希吧",
        "honorId1": 146,
        "honorLevel1": 1,
        "honorId2": 123,
        "honorLevel2": 5,
        "honorId3": 119,
        "honorLevel3": 5,
        "twitterId": "",
        "profileImageType": "leader"
      },
      "userCheerfulCarnival": {}
    },
    {
      "userId": 7013738686248574000,
      "score": 41000430,
      "rank": 6,
      "isOwn": false,
      "name": "₥Ⱡ₵｜大家都辛苦了",
      "userCard": {
        "cardId": 204,
        "level": 60,
        "masterRank": 5,
        "specialTrainingStatus": "done",
        "defaultImage": "special_training"
      },
      "userProfile": {
        "userId": 7013738686248574000,
        "word": "謝謝寶貝跟CHI推車♡愛妳們",
        "honorId1": 564,
        "honorLevel1": 1,
        "honorId2": 73,
        "honorLevel2": 5,
        "honorId3": 115,
        "honorLevel3": 1,
        "twitterId": "",
        "profileImageType": "leader"
      },
      "userCheerfulCarnival": {}
    },
    {
      "userId": 7033405055579545000,
      "score": 40300827,
      "rank": 7,
      "isOwn": false,
      "name": "U璃@21時、摸魚で",
      "userCard": {
        "cardId": 202,
        "level": 60,
        "masterRank": 5,
        "specialTrainingStatus": "done",
        "defaultImage": "special_training"
      },
      "userProfile": {
        "userId": 7033405055579545000,
        "word": "tibi seris,tibi metis",
        "honorId1": 564,
        "honorLevel1": 1,
        "honorId2": 74,
        "honorLevel2": 1,
        "honorId3": 78,
        "honorLevel3": 1,
        "twitterId": "",
        "profileImageType": "leader"
      },
      "userCheerfulCarnival": {}
    },
    {
      "userId": 7013372953215884000,
      "score": 40228328,
      "rank": 8,
      "isOwn": false,
      "name": "U璃@21時、摸魚で",
      "userCard": {
        "cardId": 119,
        "level": 60,
        "masterRank": 0,
        "specialTrainingStatus": "done",
        "defaultImage": "original"
      },
      "userProfile": {
        "userId": 7013372953215884000,
        "word": "ずっと守るだよ　ふたりで永遠一緒",
        "honorId1": 563,
        "honorLevel1": 1,
        "honorId2": 259,
        "honorLevel2": 1,
        "honorId3": 123,
        "honorLevel3": 5,
        "twitterId": "",
        "profileImageType": "leader"
      },
      "userCheerfulCarnival": {}
    },
    {
      "userId": 7013637254077881000,
      "score": 39869869,
      "rank": 9,
      "isOwn": false,
      "name": "深山瑞希♂暁山瑞希♪",
      "userCard": {
        "cardId": 202,
        "level": 60,
        "masterRank": 5,
        "specialTrainingStatus": "done",
        "defaultImage": "special_training"
      },
      "userProfile": {
        "userId": 7013637254077881000,
        "word": "男の娘宣道目的達成｜退隱",
        "honorId1": 10017,
        "honorLevel1": 2,
        "honorId2": 77,
        "honorLevel2": 5,
        "honorId3": 73,
        "honorLevel3": 4,
        "twitterId": "",
        "profileImageType": "leader"
      },
      "userCheerfulCarnival": {}
    },
    {
      "userId": 7017082504817499000,
      "score": 39717877,
      "rank": 10,
      "isOwn": false,
      "name": "水水@凳子與我同在",
      "userCard": {
        "cardId": 204,
        "level": 60,
        "masterRank": 0,
        "specialTrainingStatus": "done",
        "defaultImage": "special_training"
      },
      "userProfile": {
        "userId": 7017082504817499000,
        "word": "Dc：水水#7721",
        "honorId1": 77,
        "honorLevel1": 5,
        "honorId2": 146,
        "honorLevel2": 1,
        "honorId3": 111,
        "honorLevel3": 1,
        "twitterId": "",
        "profileImageType": "leader"
      },
      "userCheerfulCarnival": {}
    }
  ],
  "rank20": [
    {
      "userId": 7013402690181193000,
      "score": 18745354,
      "rank": 20,
      "isOwn": false,
      "name": "雨川",
      "userCard": {
        "cardId": 204,
        "level": 60,
        "masterRank": 0,
        "specialTrainingStatus": "done",
        "defaultImage": "special_training"
      },
      "userProfile": {
        "userId": 7013402690181193000,
        "word": "雨川",
        "honorId1": 385,
        "honorLevel1": 1,
        "honorId2": 78,
        "honorLevel2": 1,
        "honorId3": 147,
        "honorLevel3": 1,
        "twitterId": "",
        "profileImageType": "leader"
      },
      "userCheerfulCarnival": {}
    }
  ],
  "rank30": [
    {
      "userId": 7015907117114891000,
      "score": 14555595,
      "rank": 30,
      "isOwn": false,
      "name": "あめ@怀念凳子",
      "userCard": {
        "cardId": 195,
        "level": 60,
        "masterRank": 2,
        "specialTrainingStatus": "done",
        "defaultImage": "special_training"
      },
      "userProfile": {
        "userId": 7015907117114891000,
        "word": "术术人",
        "honorId1": 10019,
        "honorLevel1": 1,
        "honorId2": 192,
        "honorLevel2": 1,
        "honorId3": 266,
        "honorLevel3": 1,
        "twitterId": "",
        "profileImageType": "leader"
      },
      "userCheerfulCarnival": {}
    }
  ],
  "rank40": [
    {
      "userId": 7013586645840764000,
      "score": 10481115,
      "rank": 40,
      "isOwn": false,
      "name": "伊連悠恩☆這期休閒跑",
      "userCard": {
        "cardId": 195,
        "level": 60,
        "masterRank": 0,
        "specialTrainingStatus": "done",
        "defaultImage": "original"
      },
      "userProfile": {
        "userId": 7013586645840764000,
        "word": "第２４期努力拼第１名至第３名！保Ｔ１０名，請大佬們高抬貴手！",
        "honorId1": 10011,
        "honorLevel1": 1,
        "honorId2": 90,
        "honorLevel2": 1,
        "honorId3": 46,
        "honorLevel3": 1,
        "twitterId": "",
        "profileImageType": "leader"
      },
      "userCheerfulCarnival": {}
    }
  ],
  "rank50": [
    {
      "userId": 7018410921332760000,
      "score": 9706131,
      "rank": 50,
      "isOwn": false,
      "name": "撒安哟安哟阔起哦一得",
      "userCard": {
        "cardId": 152,
        "level": 60,
        "masterRank": 0,
        "specialTrainingStatus": "done",
        "defaultImage": "special_training"
      },
      "userProfile": {
        "userId": 7018410921332760000,
        "word": "。",
        "honorId1": 69,
        "honorLevel1": 4,
        "honorId2": 608,
        "honorLevel2": 1,
        "honorId3": 10026,
        "honorLevel3": 1,
        "twitterId": "",
        "profileImageType": "leader"
      },
      "userCheerfulCarnival": {}
    }
  ],
  "rank100": [
    {
      "userId": 7015251880305761000,
      "score": 6731379,
      "rank": 100,
      "isOwn": false,
      "name": "Marso",
      "userCard": {
        "cardId": 195,
        "level": 60,
        "masterRank": 5,
        "specialTrainingStatus": "done",
        "defaultImage": "original"
      },
      "userProfile": {
        "userId": 7015251880305761000,
        "word": "",
        "honorId1": 10018,
        "honorLevel1": 4,
        "honorId2": 73,
        "honorLevel2": 4,
        "honorId3": 123,
        "honorLevel3": 2,
        "twitterId": "",
        "profileImageType": "leader"
      },
      "userCheerfulCarnival": {}
    }
  ],
  "rank200": [
    {
      "userId": 7022625414854172000,
      "score": 3602138,
      "rank": 200,
      "isOwn": false,
      "name": "几莫(39期见！",
      "userCard": {
        "cardId": 139,
        "level": 60,
        "masterRank": 5,
        "specialTrainingStatus": "done",
        "defaultImage": "original"
      },
      "userProfile": {
        "userId": 7022625414854172000,
        "word": "大家辛苦了！39期再见！",
        "honorId1": 77,
        "honorLevel1": 5,
        "honorId2": 447,
        "honorLevel2": 1,
        "honorId3": 10017,
        "honorLevel3": 5,
        "twitterId": "",
        "profileImageType": "leader"
      },
      "userCheerfulCarnival": {}
    }
  ],
  "rank300": [
    {
      "userId": 7026652403470605000,
      "score": 2856002,
      "rank": 300,
      "isOwn": false,
      "name": "判定不要睡了",
      "userCard": {
        "cardId": 71,
        "level": 50,
        "masterRank": 5,
        "specialTrainingStatus": "done",
        "defaultImage": "special_training"
      },
      "userProfile": {
        "userId": 7026652403470605000,
        "word": "25時全員大推！！",
        "honorId1": 571,
        "honorLevel1": 1,
        "honorId2": 77,
        "honorLevel2": 3,
        "honorId3": 69,
        "honorLevel3": 3,
        "twitterId": "",
        "profileImageType": "leader"
      },
      "userCheerfulCarnival": {}
    }
  ],
  "rank400": [
    {
      "userId": 7023419403543043000,
      "score": 2581013,
      "rank": 400,
      "isOwn": false,
      "name": "夏恋花火",
      "userCard": {
        "cardId": 175,
        "level": 60,
        "masterRank": 0,
        "specialTrainingStatus": "done",
        "defaultImage": "special_training"
      },
      "userProfile": {
        "userId": 7023419403543043000,
        "word": "愛されなくても君がいる",
        "honorId1": 385,
        "honorLevel1": 1,
        "honorId2": 126,
        "honorLevel2": 1,
        "honorId3": 10018,
        "honorLevel3": 5,
        "twitterId": "",
        "profileImageType": "leader"
      },
      "userCheerfulCarnival": {}
    }
  ],
  "rank500": [
    {
      "userId": 7020396154802445000,
      "score": 2517074,
      "rank": 500,
      "isOwn": false,
      "name": "Æ微咲₽ -可羅米-",
      "userCard": {
        "cardId": 71,
        "level": 50,
        "masterRank": 5,
        "specialTrainingStatus": "done",
        "defaultImage": "special_training"
      },
      "userProfile": {
        "userId": 7020396154802445000,
        "word": "日版皆傳7->真冬推 fb:Kuromi Kwok ",
        "honorId1": 70,
        "honorLevel1": 1,
        "honorId2": 247,
        "honorLevel2": 1,
        "honorId3": 123,
        "honorLevel3": 4,
        "twitterId": "",
        "profileImageType": "leader"
      },
      "userCheerfulCarnival": {}
    }
  ],
  "rank1000": [
    {
      "userId": 7053022293806767000,
      "score": 1906148,
      "rank": 1000,
      "isOwn": false,
      "name": "150抽畢業的伊芺",
      "userCard": {
        "cardId": 202,
        "level": 60,
        "masterRank": 0,
        "specialTrainingStatus": "done",
        "defaultImage": "special_training"
      },
      "userProfile": {
        "userId": 7053022293806767000,
        "word": "",
        "honorId1": 10017,
        "honorLevel1": 5,
        "honorId2": 247,
        "honorLevel2": 1,
        "honorId3": 246,
        "honorLevel3": 1,
        "twitterId": "",
        "profileImageType": "leader"
      },
      "userCheerfulCarnival": {}
    }
  ],
  "rank2000": [
    {
      "userId": 7014869262011604000,
      "score": 1348611,
      "rank": 2000,
      "isOwn": false,
      "name": "ミク大好き",
      "userCard": {
        "cardId": 139,
        "level": 60,
        "masterRank": 0,
        "specialTrainingStatus": "done",
        "defaultImage": "special_training"
      },
      "userProfile": {
        "userId": 7014869262011604000,
        "word": "",
        "honorId1": 10022,
        "honorLevel1": 1,
        "honorId2": 115,
        "honorLevel2": 1,
        "honorId3": 227,
        "honorLevel3": 4,
        "twitterId": "",
        "profileImageType": "leader"
      },
      "userCheerfulCarnival": {}
    }
  ],
  "rank3000": [
    {
      "userId": 7013599356741918000,
      "score": 1159536,
      "rank": 3000,
      "isOwn": false,
      "name": "夜空星塵",
      "userCard": {
        "cardId": 202,
        "level": 60,
        "masterRank": 0,
        "specialTrainingStatus": "done",
        "defaultImage": "special_training"
      },
      "userProfile": {
        "userId": 7013599356741918000,
        "word": "多多指教",
        "honorId1": 10021,
        "honorLevel1": 5,
        "honorId2": 226,
        "honorLevel2": 5,
        "honorId3": 10026,
        "honorLevel3": 1,
        "twitterId": "",
        "profileImageType": "leader"
      },
      "userCheerfulCarnival": {}
    }
  ],
  "rank4000": [
    {
      "userId": 7016187835061476000,
      "score": 1050290,
      "rank": 4000,
      "isOwn": false,
      "name": "mayuyu",
      "userCard": {
        "cardId": 88,
        "level": 60,
        "masterRank": 0,
        "specialTrainingStatus": "done",
        "defaultImage": "special_training"
      },
      "userProfile": {
        "userId": 7016187835061476000,
        "word": "為了一周內限定司開始存水晶，超過六萬石才能開抽！",
        "honorId1": 10013,
        "honorLevel1": 3,
        "honorId2": 10026,
        "honorLevel2": 1,
        "honorId3": 49,
        "honorLevel3": 5,
        "twitterId": "",
        "profileImageType": "leader"
      },
      "userCheerfulCarnival": {}
    }
  ],
  "rank5000": [
    {
      "userId": 7049956993133518000,
      "score": 1001520,
      "rank": 5000,
      "isOwn": false,
      "name": "Yoki|努力皆傳",
      "userCard": {
        "cardId": 163,
        "level": 50,
        "masterRank": 5,
        "specialTrainingStatus": "done",
        "defaultImage": "original"
      },
      "userProfile": {
        "userId": 7049956993133518000,
        "word": "手殘玩家",
        "honorId1": 21,
        "honorLevel1": 5,
        "honorId2": 644,
        "honorLevel2": 1,
        "honorId3": 25,
        "honorLevel3": 3,
        "twitterId": "",
        "profileImageType": "leader"
      },
      "userCheerfulCarnival": {}
    }
  ],
  "rank10000": [
    {
      "userId": 7014446434535759000,
      "score": 634097,
      "rank": 10000,
      "isOwn": false,
      "name": "Qpong",
      "userCard": {
        "cardId": 129,
        "level": 60,
        "masterRank": 0,
        "specialTrainingStatus": "done",
        "defaultImage": "special_training"
      },
      "userProfile": {
        "userId": 7014446434535759000,
        "word": "Qq",
        "honorId1": 65,
        "honorLevel1": 4,
        "honorId2": 130,
        "honorLevel2": 1,
        "honorId3": 105,
        "honorLevel3": 1,
        "twitterId": "",
        "profileImageType": "leader"
      },
      "userCheerfulCarnival": {}
    }
  ],
  "rank20000": [
    {
      "userId": 7015165491614391000,
      "score": 362766,
      "rank": 20000,
      "isOwn": false,
      "name": "眞島まじま",
      "userCard": {
        "cardId": 117,
        "level": 50,
        "masterRank": 0,
        "specialTrainingStatus": "done",
        "defaultImage": "special_training"
      },
      "userProfile": {
        "userId": 7015165491614391000,
        "word": "",
        "honorId1": 105,
        "honorLevel1": 1,
        "honorId2": 138,
        "honorLevel2": 1,
        "honorId3": 129,
        "honorLevel3": 1,
        "twitterId": "",
        "profileImageType": "leader"
      },
      "userCheerfulCarnival": {}
    }
  ],
  "rank30000": [
    {
      "userId": 7040085445526445000,
      "score": 254047,
      "rank": 30000,
      "isOwn": false,
      "name": "薯餅菲",
      "userCard": {
        "cardId": 195,
        "level": 60,
        "masterRank": 0,
        "specialTrainingStatus": "done",
        "defaultImage": "special_training"
      },
      "userProfile": {
        "userId": 7040085445526445000,
        "word": "人人都是蘇菲",
        "honorId1": 65,
        "honorLevel1": 1,
        "honorId2": 25,
        "honorLevel2": 1,
        "honorId3": 77,
        "honorLevel3": 1,
        "twitterId": "",
        "profileImageType": "leader"
      },
      "userCheerfulCarnival": {}
    }
  ],
  "rank40000": [
    {
      "userId": 7024035084064022000,
      "score": 183648,
      "rank": 40000,
      "isOwn": false,
      "name": "傾雪寧",
      "userCard": {
        "cardId": 144,
        "level": 60,
        "masterRank": 0,
        "specialTrainingStatus": "done",
        "defaultImage": "original"
      },
      "userProfile": {
        "userId": 7024035084064022000,
        "word": "",
        "honorId1": 57,
        "honorLevel1": 4,
        "honorId2": 430,
        "honorLevel2": 1,
        "honorId3": 304,
        "honorLevel3": 1,
        "twitterId": "",
        "profileImageType": "leader"
      },
      "userCheerfulCarnival": {}
    }
  ],
  "rank50000": [
    {
      "userId": 7020694435025575000,
      "score": 129156,
      "rank": 50000,
      "isOwn": false,
      "name": "達文西",
      "userCard": {
        "cardId": 130,
        "level": 57,
        "masterRank": 0,
        "specialTrainingStatus": "done",
        "defaultImage": "special_training"
      },
      "userProfile": {
        "userId": 7020694435025575000,
        "word": "",
        "honorId1": 25,
        "honorLevel1": 1,
        "honorId2": 65,
        "honorLevel2": 1,
        "honorId3": 17,
        "honorLevel3": 1,
        "twitterId": "",
        "profileImageType": "leader"
      },
      "userCheerfulCarnival": {}
    }
  ],
  "rank100000": [
    {
      "userId": 7086763887940394000,
      "score": 15360,
      "rank": 100000,
      "isOwn": false,
      "name": "靛子芸",
      "userCard": {
        "cardId": 86,
        "level": 7,
        "masterRank": 0,
        "specialTrainingStatus": "not_doing",
        "defaultImage": "original"
      },
      "userProfile": {
        "userId": 7086763887940394000,
        "profileImageType": "leader"
      },
      "userCheerfulCarnival": {}
    }
  ]
}