{
  "time": 1645017358103,
  "first10": [
    {
      "userId": 7014401641814433000,
      "score": 44175085,
      "rank": 1,
      "isOwn": false,
      "name": "哲",
      "userCard": {
        "cardId": 111,
        "level": 60,
        "masterRank": 5,
        "specialTrainingStatus": "done",
        "defaultImage": "special_training"
      },
      "userProfile": {
        "userId": 7014401641814433000,
        "word": "",
        "honorId1": 13,
        "honorLevel1": 5,
        "honorId2": 463,
        "honorLevel2": 1,
        "honorId3": 309,
        "honorLevel3": 1,
        "twitterId": "",
        "profileImageType": "leader"
      },
      "userCheerfulCarnival": {}
    },
    {
      "userId": 7013567396719926000,
      "score": 41451494,
      "rank": 2,
      "isOwn": false,
      "name": "GUAღ就哲？！ ",
      "userCard": {
        "cardId": 116,
        "level": 60,
        "masterRank": 5,
        "specialTrainingStatus": "done",
        "defaultImage": "special_training"
      },
      "userProfile": {
        "userId": 7013567396719926000,
        "word": "哎呀！怎麼數字沒有那麼整齊呢！哲咋辦呢？",
        "honorId1": 13,
        "honorLevel1": 5,
        "honorId2": 233,
        "honorLevel2": 1,
        "honorId3": 115,
        "honorLevel3": 1,
        "twitterId": "",
        "profileImageType": "leader"
      },
      "userCheerfulCarnival": {}
    },
    {
      "userId": 7029599152057179000,
      "score": 16300000,
      "rank": 3,
      "isOwn": false,
      "name": "雪兔@玉米貼貼",
      "userCard": {
        "cardId": 139,
        "level": 60,
        "masterRank": 5,
        "specialTrainingStatus": "done",
        "defaultImage": "original"
      },
      "userProfile": {
        "userId": 7029599152057179000,
        "word": "可愛",
        "honorId1": 10019,
        "honorLevel1": 1,
        "honorId2": 438,
        "honorLevel2": 1,
        "honorId3": 386,
        "honorLevel3": 1,
        "twitterId": "",
        "profileImageType": "leader"
      },
      "userCheerfulCarnival": {}
    },
    {
      "userId": 7013502198671744000,
      "score": 12546841,
      "rank": 4,
      "isOwn": false,
      "name": "襪子@大家辛苦了",
      "userCard": {
        "cardId": 172,
        "level": 60,
        "masterRank": 0,
        "specialTrainingStatus": "done",
        "defaultImage": "original"
      },
      "userProfile": {
        "userId": 7013502198671744000,
        "word": "あああああああああああしほさき大好き",
        "honorId1": 186,
        "honorLevel1": 1,
        "honorId2": 5,
        "honorLevel2": 5,
        "honorId3": 13,
        "honorLevel3": 4,
        "twitterId": "",
        "profileImageType": "leader"
      },
      "userCheerfulCarnival": {}
    },
    {
      "userId": 7013368891544133000,
      "score": 12520410,
      "rank": 5,
      "isOwn": false,
      "name": "♡勞鼠我愛你♡",
      "userCard": {
        "cardId": 173,
        "level": 50,
        "masterRank": 5,
        "specialTrainingStatus": "done",
        "defaultImage": "special_training"
      },
      "userProfile": {
        "userId": 7013368891544133000,
        "word": "我是奎 我愛勞鼠",
        "honorId2": 281,
        "honorLevel2": 1,
        "honorId3": 390,
        "honorLevel3": 1,
        "twitterId": "",
        "profileImageType": "leader"
      },
      "userCheerfulCarnival": {}
    },
    {
      "userId": 7013432147252026000,
      "score": 11753000,
      "rank": 6,
      "isOwn": false,
      "name": "Fuchai可愛狗狗",
      "userCard": {
        "cardId": 170,
        "level": 60,
        "masterRank": 0,
        "specialTrainingStatus": "done",
        "defaultImage": "special_training"
      },
      "userProfile": {
        "userId": 7013432147252026000,
        "word": "好玩遊戲，每天要玩！",
        "honorId1": 13,
        "honorLevel1": 4,
        "honorId2": 186,
        "honorLevel2": 1,
        "honorId3": 246,
        "honorLevel3": 1,
        "twitterId": "",
        "profileImageType": "leader"
      },
      "userCheerfulCarnival": {}
    },
    {
      "userId": 7016132478318599000,
      "score": 11050127,
      "rank": 7,
      "isOwn": false,
      "name": "CoRN@雪兔貼貼",
      "userCard": {
        "cardId": 172,
        "level": 60,
        "masterRank": 5,
        "specialTrainingStatus": "done",
        "defaultImage": "special_training"
      },
      "userProfile": {
        "userId": 7016132478318599000,
        "word": "@DNL 11/05 Meiko生日 01/27 mfy生日",
        "honorId1": 535,
        "honorLevel1": 1,
        "honorId2": 70,
        "honorLevel2": 1,
        "honorId3": 10019,
        "honorLevel3": 1,
        "twitterId": "",
        "profileImageType": "leader"
      },
      "userCheerfulCarnival": {}
    },
    {
      "userId": 7039005497969761000,
      "score": 10947427,
      "rank": 8,
      "isOwn": false,
      "name": "玥曰@想保T10",
      "userCard": {
        "cardId": 15,
        "level": 50,
        "masterRank": 5,
        "specialTrainingStatus": "done",
        "defaultImage": "special_training"
      },
      "userProfile": {
        "userId": 7039005497969761000,
        "word": "暴死了...",
        "honorId1": 13,
        "honorLevel1": 3,
        "honorId2": 57,
        "honorLevel2": 3,
        "honorId3": 419,
        "honorLevel3": 1,
        "twitterId": "",
        "profileImageType": "leader"
      },
      "userCheerfulCarnival": {}
    },
    {
      "userId": 7013507046209543000,
      "score": 10859293,
      "rank": 9,
      "isOwn": false,
      "name": "莉莎悠貴志步都是我婆",
      "userCard": {
        "cardId": 170,
        "level": 60,
        "masterRank": 5,
        "specialTrainingStatus": "done",
        "defaultImage": "original"
      },
      "userProfile": {
        "userId": 7013507046209543000,
        "word": "志步好帥啊！不愧是我婆     從隔壁的Roselia過來的",
        "honorId1": 190,
        "honorLevel1": 1,
        "honorId2": 13,
        "honorLevel2": 5,
        "honorId3": 233,
        "honorLevel3": 1,
        "twitterId": "",
        "profileImageType": "leader"
      },
      "userCheerfulCarnival": {}
    },
    {
      "userId": 7002488682666139000,
      "score": 10809656,
      "rank": 10,
      "isOwn": false,
      "name": "初@角色終於全20了",
      "userCard": {
        "cardId": 126,
        "level": 60,
        "masterRank": 5,
        "specialTrainingStatus": "done",
        "defaultImage": "special_training"
      },
      "userProfile": {
        "userId": 7002488682666139000,
        "word": "目標：一週年全角色羽牌",
        "honorId1": 233,
        "honorLevel1": 1,
        "honorId2": 251,
        "honorLevel2": 1,
        "honorId3": 232,
        "honorLevel3": 1,
        "twitterId": "",
        "profileImageType": "leader"
      },
      "userCheerfulCarnival": {}
    }
  ],
  "rank20": [
    {
      "userId": 7013362635164999000,
      "score": 5483138,
      "rank": 20,
      "isOwn": false,
      "name": "空",
      "userCard": {
        "cardId": 170,
        "level": 60,
        "masterRank": 0,
        "specialTrainingStatus": "done",
        "defaultImage": "special_training"
      },
      "userProfile": {
        "userId": 7013362635164999000,
        "word": "台日雙修，廢柴一個",
        "honorId1": 13,
        "honorLevel1": 3,
        "honorId2": 233,
        "honorLevel2": 1,
        "honorId3": 123,
        "honorLevel3": 5,
        "twitterId": "",
        "profileImageType": "leader"
      },
      "userCheerfulCarnival": {}
    }
  ],
  "rank30": [
    {
      "userId": 7024884197605236000,
      "score": 4819793,
      "rank": 30,
      "isOwn": false,
      "name": "Leo510327",
      "userCard": {
        "cardId": 155,
        "level": 60,
        "masterRank": 0,
        "specialTrainingStatus": "done",
        "defaultImage": "special_training"
      },
      "userProfile": {
        "userId": 7024884197605236000,
        "word": "",
        "honorId1": 10002,
        "honorLevel1": 4,
        "honorId2": 13,
        "honorLevel2": 3,
        "honorId3": 5,
        "honorLevel3": 3,
        "twitterId": "",
        "profileImageType": "leader"
      },
      "userCheerfulCarnival": {}
    }
  ],
  "rank40": [
    {
      "userId": 7043242628456144000,
      "score": 4076135,
      "rank": 40,
      "isOwn": false,
      "name": "ST_白貓好累保40",
      "userCard": {
        "cardId": 153,
        "level": 50,
        "masterRank": 5,
        "specialTrainingStatus": "done",
        "defaultImage": "special_training"
      },
      "userProfile": {
        "userId": 7043242628456144000,
        "word": "Team:Southport Townlet",
        "honorId1": 467,
        "honorLevel1": 1,
        "honorId2": 517,
        "honorLevel2": 1,
        "honorId3": 10010,
        "honorLevel3": 3,
        "twitterId": "",
        "profileImageType": "leader"
      },
      "userCheerfulCarnival": {}
    }
  ],
  "rank50": [
    {
      "userId": 7058816813286825000,
      "score": 3664407,
      "rank": 50,
      "isOwn": false,
      "name": "抱歉我爬不動了",
      "userCard": {
        "cardId": 170,
        "level": 60,
        "masterRank": 0,
        "specialTrainingStatus": "done",
        "defaultImage": "special_training"
      },
      "userProfile": {
        "userId": 7058816813286825000,
        "word": "A…A……AA……AAAA…(手語",
        "honorId1": 9,
        "honorLevel1": 3,
        "honorId2": 10001,
        "honorLevel2": 4,
        "honorId3": 526,
        "honorLevel3": 1,
        "twitterId": "",
        "profileImageType": "leader"
      },
      "userCheerfulCarnival": {}
    }
  ],
  "rank100": [
    {
      "userId": 7051130225446493000,
      "score": 2750003,
      "rank": 100,
      "isOwn": false,
      "name": "kayla",
      "userCard": {
        "cardId": 130,
        "level": 60,
        "masterRank": 0,
        "specialTrainingStatus": "done",
        "defaultImage": "special_training"
      },
      "userProfile": {
        "userId": 7051130225446493000,
        "word": "hello",
        "honorId1": 29,
        "honorLevel1": 1,
        "honorId2": 503,
        "honorLevel2": 1,
        "honorId3": 77,
        "honorLevel3": 1,
        "twitterId": "",
        "profileImageType": "leader"
      },
      "userCheerfulCarnival": {}
    }
  ],
  "rank200": [
    {
      "userId": 7019064329643351000,
      "score": 1766236,
      "rank": 200,
      "isOwn": false,
      "name": "色不異空 空不異色",
      "userCard": {
        "cardId": 119,
        "level": 60,
        "masterRank": 5,
        "specialTrainingStatus": "done",
        "defaultImage": "original"
      },
      "userProfile": {
        "userId": 7019064329643351000,
        "word": "類好香救命",
        "honorId1": 61,
        "honorLevel1": 5,
        "honorId2": 315,
        "honorLevel2": 1,
        "honorId3": 521,
        "honorLevel3": 1,
        "twitterId": "",
        "profileImageType": "leader"
      },
      "userCheerfulCarnival": {}
    }
  ],
  "rank300": [
    {
      "userId": 7060979766203244000,
      "score": 1568029,
      "rank": 300,
      "isOwn": false,
      "name": "GUAღ拜托請幫我",
      "userCard": {
        "cardId": 15,
        "level": 50,
        "masterRank": 0,
        "specialTrainingStatus": "done",
        "defaultImage": "special_training"
      },
      "userProfile": {
        "userId": 7060979766203244000,
        "word": "手打白滑墨魚丸現正招募信徒",
        "honorId1": 13,
        "honorLevel1": 1,
        "honorId2": 10014,
        "honorLevel2": 5,
        "honorId3": 534,
        "honorLevel3": 1,
        "twitterId": "",
        "profileImageType": "leader"
      },
      "userCheerfulCarnival": {}
    }
  ],
  "rank400": [
    {
      "userId": 7013386675795729000,
      "score": 1503716,
      "rank": 400,
      "isOwn": false,
      "name": "夜月楓",
      "userCard": {
        "cardId": 119,
        "level": 60,
        "masterRank": 2,
        "specialTrainingStatus": "done",
        "defaultImage": "special_training"
      },
      "userProfile": {
        "userId": 7013386675795729000,
        "word": "楓楓貓一隻，休閒玩家0.0",
        "honorId1": 535,
        "honorLevel1": 1,
        "honorId2": 61,
        "honorLevel2": 3,
        "honorId3": 49,
        "honorLevel3": 1,
        "twitterId": "",
        "profileImageType": "leader"
      },
      "userCheerfulCarnival": {}
    }
  ],
  "rank500": [
    {
      "userId": 7020385511848123000,
      "score": 1486205,
      "rank": 500,
      "isOwn": false,
      "name": "輕井澤惠",
      "userCard": {
        "cardId": 4,
        "level": 60,
        "masterRank": 0,
        "specialTrainingStatus": "done",
        "defaultImage": "special_training"
      },
      "userProfile": {
        "userId": 7020385511848123000,
        "word": "活動160%肝上來的 DC星塵#8388",
        "honorId1": 513,
        "honorLevel1": 1,
        "honorId2": 10011,
        "honorLevel2": 1,
        "honorId3": 133,
        "honorLevel3": 1,
        "twitterId": "",
        "profileImageType": "leader"
      },
      "userCheerfulCarnival": {}
    }
  ],
  "rank1000": [
    {
      "userId": 7051146365862436000,
      "score": 1243498,
      "rank": 1000,
      "isOwn": false,
      "name": "寂しいの小林",
      "userCard": {
        "cardId": 4,
        "level": 60,
        "masterRank": 0,
        "specialTrainingStatus": "done",
        "defaultImage": "special_training"
      },
      "userProfile": {
        "userId": 7051146365862436000,
        "word": "1/9入坑 存鑽等15期限定 ",
        "honorId1": 10002,
        "honorLevel1": 5,
        "honorId2": 523,
        "honorLevel2": 1,
        "honorId3": 535,
        "honorLevel3": 1,
        "twitterId": "",
        "profileImageType": "leader"
      },
      "userCheerfulCarnival": {}
    }
  ],
  "rank2000": [
    {
      "userId": 7053078248820891000,
      "score": 981386,
      "rank": 2000,
      "isOwn": false,
      "name": "铃酱卡哇伊",
      "userCard": {
        "cardId": 171,
        "level": 60,
        "masterRank": 0,
        "specialTrainingStatus": "done",
        "defaultImage": "special_training"
      },
      "userProfile": {
        "userId": 7053078248820891000,
        "word": "‎|•'-'•)و✧",
        "honorId1": 85,
        "honorLevel1": 3,
        "honorId2": 73,
        "honorLevel2": 1,
        "honorId3": 77,
        "honorLevel3": 1,
        "twitterId": "",
        "profileImageType": "leader"
      },
      "userCheerfulCarnival": {}
    }
  ],
  "rank3000": [
    {
      "userId": 7018947162176347000,
      "score": 864891,
      "rank": 3000,
      "isOwn": false,
      "name": "边渡友次子",
      "userCard": {
        "cardId": 146,
        "level": 60,
        "masterRank": 0,
        "specialTrainingStatus": "done",
        "defaultImage": "special_training"
      },
      "userProfile": {
        "userId": 7018947162176347000,
        "word": "",
        "honorId1": 81,
        "honorLevel1": 2,
        "honorId2": 73,
        "honorLevel2": 1,
        "honorId3": 53,
        "honorLevel3": 1,
        "twitterId": "",
        "profileImageType": "leader"
      },
      "userCheerfulCarnival": {}
    }
  ],
  "rank4000": [
    {
      "userId": 7013409846750109000,
      "score": 784378,
      "rank": 4000,
      "isOwn": false,
      "name": "民政局來了！",
      "userCard": {
        "cardId": 119,
        "level": 60,
        "masterRank": 0,
        "specialTrainingStatus": "done",
        "defaultImage": "special_training"
      },
      "userProfile": {
        "userId": 7013409846750109000,
        "word": "雜食的快樂（安詳",
        "honorId1": 10010,
        "honorLevel1": 1,
        "honorId2": 41,
        "honorLevel2": 2,
        "honorId3": 45,
        "honorLevel3": 1,
        "twitterId": "",
        "profileImageType": "leader"
      },
      "userCheerfulCarnival": {}
    }
  ],
  "rank5000": [
    {
      "userId": 7016688740387118000,
      "score": 732857,
      "rank": 5000,
      "isOwn": false,
      "name": "air005831",
      "userCard": {
        "cardId": 15,
        "level": 40,
        "masterRank": 0,
        "specialTrainingStatus": "not_doing",
        "defaultImage": "original"
      },
      "userProfile": {
        "userId": 7016688740387118000,
        "word": "",
        "honorId1": 81,
        "honorLevel1": 2,
        "honorId2": 349,
        "honorLevel2": 1,
        "honorId3": 403,
        "honorLevel3": 1,
        "twitterId": "",
        "profileImageType": "leader"
      },
      "userCheerfulCarnival": {}
    }
  ],
  "rank10000": [
    {
      "userId": 7016991615952788000,
      "score": 488241,
      "rank": 10000,
      "isOwn": false,
      "name": "T⊙⊙T",
      "userCard": {
        "cardId": 88,
        "level": 60,
        "masterRank": 2,
        "specialTrainingStatus": "done",
        "defaultImage": "original"
      },
      "userProfile": {
        "userId": 7016991615952788000,
        "word": "( ´ ▽ ` )ﾉ",
        "honorId1": 81,
        "honorLevel1": 5,
        "honorId2": 112,
        "honorLevel2": 1,
        "honorId3": 113,
        "honorLevel3": 1,
        "twitterId": "",
        "profileImageType": "leader"
      },
      "userCheerfulCarnival": {}
    }
  ],
  "rank20000": [
    {
      "userId": 7060725356575219000,
      "score": 302602,
      "rank": 20000,
      "isOwn": false,
      "name": "彰冬把我贴晕了……",
      "userCard": {
        "cardId": 47,
        "level": 39,
        "masterRank": 0,
        "specialTrainingStatus": "not_doing",
        "defaultImage": "original"
      },
      "userProfile": {
        "userId": 7060725356575219000,
        "word": "彰冬杏豆沒一腿我没有腿",
        "honorId1": 214,
        "honorLevel1": 1,
        "honorId2": 45,
        "honorLevel2": 2,
        "honorId3": 41,
        "honorLevel3": 1,
        "twitterId": "",
        "profileImageType": "leader"
      },
      "userCheerfulCarnival": {}
    }
  ],
  "rank30000": [
    {
      "userId": 7062566608417496000,
      "score": 221278,
      "rank": 30000,
      "isOwn": false,
      "name": "야래",
      "userCard": {
        "cardId": 166,
        "level": 14,
        "masterRank": 0,
        "specialTrainingStatus": "not_doing",
        "defaultImage": "original"
      },
      "userProfile": {
        "userId": 7062566608417496000,
        "profileImageType": "leader"
      },
      "userCheerfulCarnival": {}
    }
  ],
  "rank40000": [
    {
      "userId": 7056349309713030000,
      "score": 163845,
      "rank": 40000,
      "isOwn": false,
      "name": "Ethereal",
      "userCard": {
        "cardId": 160,
        "level": 60,
        "masterRank": 0,
        "specialTrainingStatus": "done",
        "defaultImage": "special_training"
      },
      "userProfile": {
        "userId": 7056349309713030000,
        "word": "",
        "twitterId": "",
        "profileImageType": "leader"
      },
      "userCheerfulCarnival": {}
    }
  ],
  "rank50000": [
    {
      "userId": 7014343327801974000,
      "score": 117823,
      "rank": 50000,
      "isOwn": false,
      "name": "綾|救命滑键划出游戏",
      "userCard": {
        "cardId": 88,
        "level": 60,
        "masterRank": 0,
        "specialTrainingStatus": "done",
        "defaultImage": "special_training"
      },
      "userProfile": {
        "userId": 7014343327801974000,
        "word": "ex难度攻克中",
        "honorId1": 101,
        "honorLevel1": 2,
        "honorId2": 41,
        "honorLevel2": 2,
        "honorId3": 45,
        "honorLevel3": 1,
        "twitterId": "",
        "profileImageType": "leader"
      },
      "userCheerfulCarnival": {}
    }
  ],
  "rank100000": [
    {
      "userId": 7014468325921250000,
      "score": 14710,
      "rank": 100000,
      "isOwn": false,
      "name": "橘子好好吃~~",
      "userCard": {
        "cardId": 165,
        "level": 60,
        "masterRank": 0,
        "specialTrainingStatus": "done",
        "defaultImage": "special_training"
      },
      "userProfile": {
        "userId": 7014468325921250000,
        "word": "",
        "honorId1": 37,
        "honorLevel1": 1,
        "honorId2": 81,
        "honorLevel2": 1,
        "honorId3": 455,
        "honorLevel3": 1,
        "twitterId": "",
        "profileImageType": "leader"
      },
      "userCheerfulCarnival": {}
    }
  ]
}