{
  "time": 1648646158028,
  "first10": [
    {
      "userId": 7013365650752118000,
      "score": 52414968,
      "rank": 1,
      "isOwn": false,
      "name": "ES|ɴɴᴀ★PJD",
      "userCard": {
        "cardId": 192,
        "level": 60,
        "masterRank": 5,
        "specialTrainingStatus": "done",
        "defaultImage": "special_training"
      },
      "userProfile": {
        "userId": 7013365650752118000,
        "word": "全！身！全！霊！More！More！Jump！",
        "honorId1": 10008,
        "honorLevel1": 1,
        "honorId2": 18,
        "honorLevel2": 1,
        "honorId3": 10025,
        "honorLevel3": 1,
        "twitterId": "",
        "profileImageType": "leader"
      },
      "userCheerfulCarnival": {}
    },
    {
      "userId": 7014120160122510000,
      "score": 36000414,
      "rank": 2,
      "isOwn": false,
      "name": "黑色閃電|ɴɴᴀ",
      "userCard": {
        "cardId": 190,
        "level": 60,
        "masterRank": 5,
        "specialTrainingStatus": "done",
        "defaultImage": "special_training"
      },
      "userProfile": {
        "userId": 7014120160122510000,
        "word": "全身全霊!MORE MORE JUMP!",
        "honorId1": 10007,
        "honorLevel1": 1,
        "honorId2": 17,
        "honorLevel2": 5,
        "honorId3": 115,
        "honorLevel3": 1,
        "twitterId": "",
        "profileImageType": "leader"
      },
      "userCheerfulCarnival": {}
    },
    {
      "userId": 7034021725981515000,
      "score": 25000414,
      "rank": 3,
      "isOwn": false,
      "name": "龙虾|ɴɴᴀ★PJD",
      "userCard": {
        "cardId": 17,
        "level": 20,
        "masterRank": 5,
        "specialTrainingStatus": "not_doing",
        "defaultImage": "original"
      },
      "userProfile": {
        "userId": 7034021725981515000,
        "word": "全！身！全！霊！MORE MORE JUMP!",
        "honorId1": 10008,
        "honorLevel1": 1,
        "honorId2": 488,
        "honorLevel2": 1,
        "honorId3": 211,
        "honorLevel3": 2,
        "twitterId": "",
        "profileImageType": "leader"
      },
      "userCheerfulCarnival": {}
    },
    {
      "userId": 7013385545154076000,
      "score": 20060414,
      "rank": 4,
      "isOwn": false,
      "name": "四葉幸運草|ɴɴᴀ",
      "userCard": {
        "cardId": 190,
        "level": 60,
        "masterRank": 0,
        "specialTrainingStatus": "done",
        "defaultImage": "special_training"
      },
      "userProfile": {
        "userId": 7013385545154076000,
        "word": "2006/04/14 一位天使的誕生",
        "honorId1": 10007,
        "honorLevel1": 1,
        "honorId2": 17,
        "honorLevel2": 4,
        "honorId3": 21,
        "honorLevel3": 3,
        "twitterId": "",
        "profileImageType": "leader"
      },
      "userCheerfulCarnival": {}
    },
    {
      "userId": 7055556420388855000,
      "score": 15601206,
      "rank": 5,
      "isOwn": false,
      "name": "彩@白川貼貼",
      "userCard": {
        "cardId": 192,
        "level": 60,
        "masterRank": 0,
        "specialTrainingStatus": "done",
        "defaultImage": "original"
      },
      "userProfile": {
        "userId": 7055556420388855000,
        "word": "IG: myangelaya 要一起玩的加DC！",
        "honorId1": 29,
        "honorLevel1": 3,
        "honorId2": 17,
        "honorLevel2": 3,
        "honorId3": 123,
        "honorLevel3": 4,
        "twitterId": "",
        "profileImageType": "leader"
      },
      "userCheerfulCarnival": {}
    },
    {
      "userId": 7013406371530071000,
      "score": 15501206,
      "rank": 6,
      "isOwn": false,
      "name": "白川@彩貼貼",
      "userCard": {
        "cardId": 192,
        "level": 60,
        "masterRank": 2,
        "specialTrainingStatus": "done",
        "defaultImage": "original"
      },
      "userProfile": {
        "userId": 7013406371530071000,
        "word": "ig:yuichan.desu 不會做名片，只會愛雫不變",
        "honorId1": 30,
        "honorLevel1": 1,
        "honorId2": 487,
        "honorLevel2": 1,
        "honorId3": 106,
        "honorLevel3": 1,
        "twitterId": "",
        "profileImageType": "leader"
      },
      "userCheerfulCarnival": {}
    },
    {
      "userId": 7013560666305093000,
      "score": 15400491,
      "rank": 7,
      "isOwn": false,
      "name": "A.大家辛苦了",
      "userCard": {
        "cardId": 190,
        "level": 60,
        "masterRank": 0,
        "specialTrainingStatus": "done",
        "defaultImage": "original"
      },
      "userProfile": {
        "userId": 7013560666305093000,
        "word": "努力努力再努力！",
        "honorId1": 17,
        "honorLevel1": 3,
        "honorId2": 10005,
        "honorLevel2": 4,
        "honorId3": 114,
        "honorLevel3": 1,
        "twitterId": "",
        "profileImageType": "leader"
      },
      "userCheerfulCarnival": {}
    },
    {
      "userId": 7031341972694621000,
      "score": 15387713,
      "rank": 8,
      "isOwn": false,
      "name": "777|ɴɴᴀ",
      "userCard": {
        "cardId": 190,
        "level": 60,
        "masterRank": 4,
        "specialTrainingStatus": "done",
        "defaultImage": "original"
      },
      "userProfile": {
        "userId": 7031341972694621000,
        "word": "慘不忍睹啊 只能客家打榜了",
        "honorId1": 413,
        "honorLevel1": 1,
        "honorId2": 18,
        "honorLevel2": 1,
        "honorId3": 10007,
        "honorLevel3": 1,
        "twitterId": "",
        "profileImageType": "leader"
      },
      "userCheerfulCarnival": {}
    },
    {
      "userId": 7068965680741129000,
      "score": 15005694,
      "rank": 9,
      "isOwn": false,
      "name": "渃",
      "userCard": {
        "cardId": 192,
        "level": 60,
        "masterRank": 0,
        "specialTrainingStatus": "done",
        "defaultImage": "special_training"
      },
      "userProfile": {
        "userId": 7068965680741129000,
        "word": "今天的我也好懒~",
        "twitterId": "",
        "profileImageType": "leader"
      },
      "userCheerfulCarnival": {}
    },
    {
      "userId": 7017315391462645000,
      "score": 15000414,
      "rank": 10,
      "isOwn": false,
      "name": "北陆414みのり生日",
      "userCard": {
        "cardId": 190,
        "level": 60,
        "masterRank": 5,
        "specialTrainingStatus": "done",
        "defaultImage": "special_training"
      },
      "userProfile": {
        "userId": 7017315391462645000,
        "word": "04.14是みのり生日哦！我能否再亲一亲你的脸(;_;)",
        "honorId1": 17,
        "honorLevel1": 5,
        "honorId2": 10006,
        "honorLevel2": 1,
        "honorId3": 142,
        "honorLevel3": 1,
        "twitterId": "",
        "profileImageType": "leader"
      },
      "userCheerfulCarnival": {}
    }
  ],
  "rank20": [
    {
      "userId": 7039663583436742000,
      "score": 9217596,
      "rank": 20,
      "isOwn": false,
      "name": "星@辛苦域元宵和大家",
      "userCard": {
        "cardId": 130,
        "level": 60,
        "masterRank": 0,
        "specialTrainingStatus": "done",
        "defaultImage": "original"
      },
      "userProfile": {
        "userId": 7039663583436742000,
        "word": "ig:angel.0520_ 世界計畫的好友位滿了哦",
        "honorId1": 10007,
        "honorLevel1": 1,
        "honorId2": 540,
        "honorLevel2": 1,
        "honorId3": 17,
        "honorLevel3": 3,
        "twitterId": "",
        "profileImageType": "leader"
      },
      "userCheerfulCarnival": {}
    }
  ],
  "rank30": [
    {
      "userId": 7053620975589547000,
      "score": 8081825,
      "rank": 30,
      "isOwn": false,
      "name": "美咲@祝你半週年出彩",
      "userCard": {
        "cardId": 190,
        "level": 60,
        "masterRank": 1,
        "specialTrainingStatus": "done",
        "defaultImage": "special_training"
      },
      "userProfile": {
        "userId": 7053620975589547000,
        "word": "安全了？我開香檳慶祝了",
        "honorId1": 496,
        "honorLevel1": 1,
        "honorId2": 17,
        "honorLevel2": 3,
        "honorId3": 21,
        "honorLevel3": 3,
        "twitterId": "",
        "profileImageType": "leader"
      },
      "userCheerfulCarnival": {}
    }
  ],
  "rank40": [
    {
      "userId": 7013719432568577000,
      "score": 7085293,
      "rank": 40,
      "isOwn": false,
      "name": "白貓@みのり推し",
      "userCard": {
        "cardId": 190,
        "level": 60,
        "masterRank": 5,
        "specialTrainingStatus": "done",
        "defaultImage": "special_training"
      },
      "userProfile": {
        "userId": 7013719432568577000,
        "word": "閃亮實現！40抽4張限定怎麼回事！？",
        "honorId1": 82,
        "honorLevel1": 1,
        "honorId2": 445,
        "honorLevel2": 1,
        "honorId3": 106,
        "honorLevel3": 1,
        "twitterId": "",
        "profileImageType": "leader"
      },
      "userCheerfulCarnival": {}
    }
  ],
  "rank50": [
    {
      "userId": 7014858489231351000,
      "score": 6743961,
      "rank": 50,
      "isOwn": false,
      "name": "巡音ルカ推@復健中。",
      "userCard": {
        "cardId": 161,
        "level": 60,
        "masterRank": 0,
        "specialTrainingStatus": "done",
        "defaultImage": "special_training"
      },
      "userProfile": {
        "userId": 7014858489231351000,
        "word": "啦～啦啦啦啦啦啦 啦啦啦～啦～",
        "honorId1": 93,
        "honorLevel1": 5,
        "honorId2": 9,
        "honorLevel2": 3,
        "honorId3": 119,
        "honorLevel3": 3,
        "twitterId": "",
        "profileImageType": "leader"
      },
      "userCheerfulCarnival": {}
    }
  ],
  "rank100": [
    {
      "userId": 7020569551834291000,
      "score": 4059433,
      "rank": 100,
      "isOwn": false,
      "name": "SZz@好可怕",
      "userCard": {
        "cardId": 194,
        "level": 30,
        "masterRank": 5,
        "specialTrainingStatus": "not_doing",
        "defaultImage": "original"
      },
      "userProfile": {
        "userId": 7020569551834291000,
        "word": "3月28日 皆傳2 sign好強⊙ω⊙`)！",
        "honorId1": 129,
        "honorLevel1": 1,
        "honorId2": 17,
        "honorLevel2": 2,
        "honorId3": 357,
        "honorLevel3": 1,
        "twitterId": "",
        "profileImageType": "leader"
      },
      "userCheerfulCarnival": {}
    }
  ],
  "rank200": [
    {
      "userId": 7013606563063766000,
      "score": 2249729,
      "rank": 200,
      "isOwn": false,
      "name": "夏川しさです",
      "userCard": {
        "cardId": 114,
        "level": 60,
        "masterRank": 0,
        "specialTrainingStatus": "done",
        "defaultImage": "special_training"
      },
      "userProfile": {
        "userId": 7013606563063766000,
        "word": "寧寧一生推",
        "honorId1": 627,
        "honorLevel1": 1,
        "honorId2": 57,
        "honorLevel2": 3,
        "honorId3": 61,
        "honorLevel3": 2,
        "twitterId": "",
        "profileImageType": "leader"
      },
      "userCheerfulCarnival": {}
    }
  ],
  "rank300": [
    {
      "userId": 7013753824942792000,
      "score": 1882758,
      "rank": 300,
      "isOwn": false,
      "name": "黑糖烤布丁",
      "userCard": {
        "cardId": 121,
        "level": 60,
        "masterRank": 0,
        "specialTrainingStatus": "done",
        "defaultImage": "special_training"
      },
      "userProfile": {
        "userId": 7013753824942792000,
        "word": "わんだほーい！",
        "honorId1": 54,
        "honorLevel1": 1,
        "honorId2": 10015,
        "honorLevel2": 1,
        "honorId3": 587,
        "honorLevel3": 1,
        "twitterId": "",
        "profileImageType": "leader"
      },
      "userCheerfulCarnival": {}
    }
  ],
  "rank400": [
    {
      "userId": 7014870779791924000,
      "score": 1767962,
      "rank": 400,
      "isOwn": false,
      "name": "eeeee",
      "userCard": {
        "cardId": 121,
        "level": 60,
        "masterRank": 0,
        "specialTrainingStatus": "done",
        "defaultImage": "special_training"
      },
      "userProfile": {
        "userId": 7014870779791924000,
        "word": "ENN推的手殘黨ㄑ(©A©|||)",
        "honorId1": 10007,
        "honorLevel1": 1,
        "honorId2": 357,
        "honorLevel2": 1,
        "honorId3": 130,
        "honorLevel3": 1,
        "twitterId": "",
        "profileImageType": "leader"
      },
      "userCheerfulCarnival": {}
    }
  ],
  "rank500": [
    {
      "userId": 7038643797391334000,
      "score": 1743271,
      "rank": 500,
      "isOwn": false,
      "name": "大佬帶帶我呀",
      "userCard": {
        "cardId": 192,
        "level": 60,
        "masterRank": 0,
        "specialTrainingStatus": "done",
        "defaultImage": "special_training"
      },
      "userProfile": {
        "userId": 7038643797391334000,
        "word": "",
        "honorId1": 133,
        "honorLevel1": 1,
        "honorId2": 29,
        "honorLevel2": 3,
        "honorId3": 10005,
        "honorLevel3": 2,
        "twitterId": "",
        "profileImageType": "leader"
      },
      "userCheerfulCarnival": {}
    }
  ],
  "rank1000": [
    {
      "userId": 7036355639307820000,
      "score": 1451722,
      "rank": 1000,
      "isOwn": false,
      "name": "木寧想貼月餅★PJD",
      "userCard": {
        "cardId": 175,
        "level": 60,
        "masterRank": 0,
        "specialTrainingStatus": "done",
        "defaultImage": "special_training"
      },
      "userProfile": {
        "userId": 7036355639307820000,
        "word": "謝謝各位！努力實現互助之精神",
        "honorId1": 621,
        "honorLevel1": 1,
        "honorId2": 77,
        "honorLevel2": 5,
        "honorId3": 10020,
        "honorLevel3": 1,
        "twitterId": "",
        "profileImageType": "leader"
      },
      "userCheerfulCarnival": {}
    }
  ],
  "rank2000": [
    {
      "userId": 7013614041402973000,
      "score": 1130691,
      "rank": 2000,
      "isOwn": false,
      "name": "千雪歌琉@司推し",
      "userCard": {
        "cardId": 130,
        "level": 60,
        "masterRank": 0,
        "specialTrainingStatus": "done",
        "defaultImage": "special_training"
      },
      "userProfile": {
        "userId": 7013614041402973000,
        "word": "司推，類司我cp♡（all司我都喜翻）",
        "honorId1": 218,
        "honorLevel1": 2,
        "honorId2": 61,
        "honorLevel2": 3,
        "honorId3": 49,
        "honorLevel3": 4,
        "twitterId": "",
        "profileImageType": "leader"
      },
      "userCheerfulCarnival": {}
    }
  ],
  "rank3000": [
    {
      "userId": 7015643127545634000,
      "score": 996358,
      "rank": 3000,
      "isOwn": false,
      "name": "選歌只為不打效率曲",
      "userCard": {
        "cardId": 177,
        "level": 60,
        "masterRank": 0,
        "specialTrainingStatus": "done",
        "defaultImage": "special_training"
      },
      "userProfile": {
        "userId": 7015643127545634000,
        "word": "Hi",
        "honorId1": 146,
        "honorLevel1": 1,
        "honorId2": 430,
        "honorLevel2": 1,
        "honorId3": 435,
        "honorLevel3": 1,
        "twitterId": "",
        "profileImageType": "leader"
      },
      "userCheerfulCarnival": {}
    }
  ],
  "rank4000": [
    {
      "userId": 7053652987452906000,
      "score": 907296,
      "rank": 4000,
      "isOwn": false,
      "name": "Jhoan Lata",
      "userCard": {
        "cardId": 176,
        "level": 60,
        "masterRank": 0,
        "specialTrainingStatus": "done",
        "defaultImage": "special_training"
      },
      "userProfile": {
        "userId": 7053652987452906000,
        "word": "Hello :)",
        "honorId1": 129,
        "honorLevel1": 1,
        "honorId2": 89,
        "honorLevel2": 1,
        "honorId3": 85,
        "honorLevel3": 1,
        "twitterId": "",
        "profileImageType": "leader"
      },
      "userCheerfulCarnival": {}
    }
  ],
  "rank5000": [
    {
      "userId": 7015214229351521000,
      "score": 852858,
      "rank": 5000,
      "isOwn": false,
      "name": "穗稻 忠吾",
      "userCard": {
        "cardId": 21,
        "level": 20,
        "masterRank": 0,
        "specialTrainingStatus": "not_doing",
        "defaultImage": "original"
      },
      "userProfile": {
        "userId": 7015214229351521000,
        "word": "",
        "honorId1": 1,
        "honorLevel1": 2,
        "honorId2": 238,
        "honorLevel2": 1,
        "honorId3": 131,
        "honorLevel3": 1,
        "twitterId": "",
        "profileImageType": "leader"
      },
      "userCheerfulCarnival": {}
    }
  ],
  "rank10000": [
    {
      "userId": 7021901459885383000,
      "score": 549488,
      "rank": 10000,
      "isOwn": false,
      "name": "Erica",
      "userCard": {
        "cardId": 125,
        "level": 60,
        "masterRank": 0,
        "specialTrainingStatus": "done",
        "defaultImage": "special_training"
      },
      "userProfile": {
        "userId": 7021901459885383000,
        "word": "杏X心羽  彰人X冬彌 結婚了啦！",
        "honorId1": 10009,
        "honorLevel1": 2,
        "honorId2": 37,
        "honorLevel2": 2,
        "honorId3": 238,
        "honorLevel3": 1,
        "twitterId": "",
        "profileImageType": "leader"
      },
      "userCheerfulCarnival": {}
    }
  ],
  "rank20000": [
    {
      "userId": 7044010796313157000,
      "score": 318695,
      "rank": 20000,
      "isOwn": false,
      "name": "9",
      "userCard": {
        "cardId": 31,
        "level": 50,
        "masterRank": 0,
        "specialTrainingStatus": "done",
        "defaultImage": "special_training"
      },
      "userProfile": {
        "userId": 7044010796313157000,
        "word": "",
        "honorId1": 10021,
        "honorLevel1": 2,
        "honorId2": 85,
        "honorLevel2": 1,
        "honorId3": 81,
        "honorLevel3": 1,
        "twitterId": "",
        "profileImageType": "leader"
      },
      "userCheerfulCarnival": {}
    }
  ],
  "rank30000": [
    {
      "userId": 7017421404240961000,
      "score": 226770,
      "rank": 30000,
      "isOwn": false,
      "name": "Gorillaaa",
      "userCard": {
        "cardId": 31,
        "level": 40,
        "masterRank": 0,
        "specialTrainingStatus": "not_doing",
        "defaultImage": "original"
      },
      "userProfile": {
        "userId": 7017421404240961000,
        "word": "",
        "honorId1": 81,
        "honorLevel1": 2,
        "honorId2": 61,
        "honorLevel2": 2,
        "honorId3": 49,
        "honorLevel3": 2,
        "twitterId": "",
        "profileImageType": "leader"
      },
      "userCheerfulCarnival": {}
    }
  ],
  "rank40000": [
    {
      "userId": 7077019545277537000,
      "score": 163419,
      "rank": 40000,
      "isOwn": false,
      "name": "밍쉬",
      "userCard": {
        "cardId": 187,
        "level": 60,
        "masterRank": 0,
        "specialTrainingStatus": "done",
        "defaultImage": "special_training"
      },
      "userProfile": {
        "userId": 7077019545277537000,
        "word": "૮꒰ ˶• ༝ •˶꒱ა",
        "honorId1": 53,
        "honorLevel1": 1,
        "honorId2": 49,
        "honorLevel2": 1,
        "honorId3": 77,
        "honorLevel3": 1,
        "twitterId": "",
        "profileImageType": "leader"
      },
      "userCheerfulCarnival": {}
    }
  ],
  "rank50000": [
    {
      "userId": 7079166074595433000,
      "score": 112440,
      "rank": 50000,
      "isOwn": false,
      "name": "似相見",
      "userCard": {
        "cardId": 190,
        "level": 29,
        "masterRank": 0,
        "specialTrainingStatus": "not_doing",
        "defaultImage": "original"
      },
      "userProfile": {
        "userId": 7079166074595433000,
        "word": "",
        "twitterId": "",
        "profileImageType": "leader"
      },
      "userCheerfulCarnival": {}
    }
  ],
  "rank100000": [
    {
      "userId": 7013384078862966000,
      "score": 13495,
      "rank": 100000,
      "isOwn": false,
      "name": "激唱✧\\(>o<)ﾉ",
      "userCard": {
        "cardId": 88,
        "level": 60,
        "masterRank": 0,
        "specialTrainingStatus": "done",
        "defaultImage": "special_training"
      },
      "userProfile": {
        "userId": 7013384078862966000,
        "word": "",
        "honorId1": 81,
        "honorLevel1": 2,
        "honorId2": 129,
        "honorLevel2": 1,
        "honorId3": 127,
        "honorLevel3": 1,
        "twitterId": "",
        "profileImageType": "leader"
      },
      "userCheerfulCarnival": {}
    }
  ]
}