{
  "time": 1634562958022,
  "first10": [
    {
      "userId": 7013930982571286000,
      "score": 40000811,
      "rank": 1,
      "isOwn": false,
      "name": "霜月凜",
      "userCard": {
        "cardId": 3,
        "level": 50,
        "masterRank": 5,
        "specialTrainingStatus": "done",
        "defaultImage": "special_training"
      },
      "userProfile": {
        "userId": 7013930982571286000,
        "word": "謝謝各位的幫忙～大家辛苦了～",
        "honorId2": 1,
        "honorLevel2": 3,
        "twitterId": "",
        "profileImageType": "leader"
      },
      "userCheerfulCarnival": {}
    },
    {
      "userId": 7013567396719926000,
      "score": 33333333,
      "rank": 2,
      "isOwn": false,
      "name": "FLUKIER@レオ",
      "userCard": {
        "cardId": 111,
        "level": 60,
        "masterRank": 5,
        "specialTrainingStatus": "done",
        "defaultImage": "special_training"
      },
      "userProfile": {
        "userId": 7013567396719926000,
        "word": "2位！33333333pt目標達成！感謝！",
        "honorId1": 533,
        "honorLevel1": 1,
        "honorId2": 123,
        "honorLevel2": 1,
        "twitterId": "",
        "profileImageType": "leader"
      },
      "userCheerfulCarnival": {}
    },
    {
      "userId": 7014263594426801000,
      "score": 20596189,
      "rank": 3,
      "isOwn": false,
      "name": "天馬咲希的狗",
      "userCard": {
        "cardId": 109,
        "level": 60,
        "masterRank": 4,
        "specialTrainingStatus": "done",
        "defaultImage": "special_training"
      },
      "userProfile": {
        "userId": 7014263594426801000,
        "word": "打一期休五期，終於結束啦",
        "honorId1": 131,
        "honorLevel1": 1,
        "honorId2": 136,
        "honorLevel2": 1,
        "honorId3": 5,
        "honorLevel3": 3,
        "twitterId": "",
        "profileImageType": "leader"
      },
      "userCheerfulCarnival": {}
    },
    {
      "userId": 7013566527148498000,
      "score": 18540015,
      "rank": 4,
      "isOwn": false,
      "name": "奏のファン",
      "userCard": {
        "cardId": 110,
        "level": 60,
        "masterRank": 0,
        "specialTrainingStatus": "done",
        "defaultImage": "special_training"
      },
      "userProfile": {
        "userId": 7013566527148498000,
        "word": "主推宵崎奏、大家活動辛苦了",
        "honorId1": 65,
        "honorLevel1": 4,
        "twitterId": "",
        "profileImageType": "leader"
      },
      "userCheerfulCarnival": {}
    },
    {
      "userId": 7013573296583269000,
      "score": 18280353,
      "rank": 5,
      "isOwn": false,
      "name": "所以我的框框哩",
      "userCard": {
        "cardId": 109,
        "level": 60,
        "masterRank": 5,
        "specialTrainingStatus": "done",
        "defaultImage": "original"
      },
      "userProfile": {
        "userId": 7013573296583269000,
        "word": "累了前10剩的留給下個卡池",
        "honorId1": 123,
        "honorLevel1": 1,
        "honorId2": 130,
        "honorLevel2": 1,
        "honorId3": 108,
        "honorLevel3": 1,
        "twitterId": "",
        "profileImageType": "leader"
      },
      "userCheerfulCarnival": {}
    },
    {
      "userId": 7014044833535008000,
      "score": 17500000,
      "rank": 6,
      "isOwn": false,
      "name": "J4zz__",
      "userCard": {
        "cardId": 88,
        "level": 60,
        "masterRank": 0,
        "specialTrainingStatus": "done",
        "defaultImage": "special_training"
      },
      "userProfile": {
        "userId": 7014044833535008000,
        "word": "4天T10，感謝",
        "honorId1": 146,
        "honorLevel1": 1,
        "honorId2": 113,
        "honorLevel2": 1,
        "honorId3": 108,
        "honorLevel3": 1,
        "twitterId": "",
        "profileImageType": "leader"
      },
      "userCheerfulCarnival": {}
    },
    {
      "userId": 7013824845431463000,
      "score": 17232766,
      "rank": 7,
      "isOwn": false,
      "name": "兔子pr",
      "userCard": {
        "cardId": 88,
        "level": 60,
        "masterRank": 5,
        "specialTrainingStatus": "done",
        "defaultImage": "special_training"
      },
      "userProfile": {
        "userId": 7013824845431463000,
        "word": "沒有巡音我要死掉了",
        "honorId1": 81,
        "honorLevel1": 5,
        "honorId2": 146,
        "honorLevel2": 1,
        "honorId3": 115,
        "honorLevel3": 1,
        "twitterId": "",
        "profileImageType": "leader"
      },
      "userCheerfulCarnival": {}
    },
    {
      "userId": 7013611844694810000,
      "score": 17176165,
      "rank": 8,
      "isOwn": false,
      "name": "P",
      "userCard": {
        "cardId": 110,
        "level": 60,
        "masterRank": 2,
        "specialTrainingStatus": "done",
        "defaultImage": "special_training"
      },
      "userProfile": {
        "userId": 7013611844694810000,
        "word": "icsk不结婚天地难容",
        "honorId2": 1,
        "honorLevel2": 4,
        "honorId3": 5,
        "honorLevel3": 3,
        "twitterId": "",
        "profileImageType": "leader"
      },
      "userCheerfulCarnival": {}
    },
    {
      "userId": 7013625432289582000,
      "score": 16058418,
      "rank": 9,
      "isOwn": false,
      "name": "Minami",
      "userCard": {
        "cardId": 109,
        "level": 60,
        "masterRank": 1,
        "specialTrainingStatus": "done",
        "defaultImage": "special_training"
      },
      "userProfile": {
        "userId": 7013625432289582000,
        "word": "OuQ",
        "honorId1": 218,
        "honorLevel1": 1,
        "honorId2": 5,
        "honorLevel2": 3,
        "honorId3": 81,
        "honorLevel3": 4,
        "twitterId": "",
        "profileImageType": "leader"
      },
      "userCheerfulCarnival": {}
    },
    {
      "userId": 7013358943871426000,
      "score": 15942522,
      "rank": 10,
      "isOwn": false,
      "name": "AlvinHK",
      "userCard": {
        "cardId": 109,
        "level": 60,
        "masterRank": 4,
        "specialTrainingStatus": "done",
        "defaultImage": "special_training"
      },
      "userProfile": {
        "userId": 7013358943871426000,
        "word": "DC: ALVIN#2834",
        "honorId1": 81,
        "honorLevel1": 5,
        "honorId2": 93,
        "honorLevel2": 3,
        "honorId3": 108,
        "honorLevel3": 1,
        "twitterId": "",
        "profileImageType": "leader"
      },
      "userCheerfulCarnival": {}
    }
  ],
  "rank20": [
    {
      "userId": 7013576382290599000,
      "score": 11358946,
      "rank": 20,
      "isOwn": false,
      "name": "HoBBBBBBBB",
      "userCard": {
        "cardId": 109,
        "level": 60,
        "masterRank": 0,
        "specialTrainingStatus": "done",
        "defaultImage": "special_training"
      },
      "userProfile": {
        "userId": 7013576382290599000,
        "word": "~剛玩的新手=.=歡迎加好友哦~",
        "honorId1": 146,
        "honorLevel1": 1,
        "honorId2": 108,
        "honorLevel2": 1,
        "honorId3": 131,
        "honorLevel3": 1,
        "twitterId": "",
        "profileImageType": "leader"
      },
      "userCheerfulCarnival": {}
    }
  ],
  "rank30": [
    {
      "userId": 7014025541384936000,
      "score": 10667695,
      "rank": 30,
      "isOwn": false,
      "name": "Honone",
      "userCard": {
        "cardId": 111,
        "level": 60,
        "masterRank": 1,
        "specialTrainingStatus": "done",
        "defaultImage": "special_training"
      },
      "userProfile": {
        "userId": 7014025541384936000,
        "word": "這兩小時不見了4000水晶去哪了",
        "honorId1": 1,
        "honorLevel1": 3,
        "honorId2": 206,
        "honorLevel2": 1,
        "honorId3": 108,
        "honorLevel3": 1,
        "twitterId": "",
        "profileImageType": "leader"
      },
      "userCheerfulCarnival": {}
    }
  ],
  "rank40": [
    {
      "userId": 7013705308476333000,
      "score": 9370938,
      "rank": 40,
      "isOwn": false,
      "name": "咲ヾ(＾。^*)ω",
      "userCard": {
        "cardId": 109,
        "level": 60,
        "masterRank": 0,
        "specialTrainingStatus": "done",
        "defaultImage": "original"
      },
      "userProfile": {
        "userId": 7013705308476333000,
        "word": "朝比奈真冬激推bot！！|ω・谢谢你这么忙还来看我！",
        "honorId1": 69,
        "honorLevel1": 3,
        "honorId2": 222,
        "honorLevel2": 1,
        "honorId3": 108,
        "honorLevel3": 1,
        "twitterId": "",
        "profileImageType": "leader"
      },
      "userCheerfulCarnival": {}
    }
  ],
  "rank50": [
    {
      "userId": 7013358884962459000,
      "score": 8780473,
      "rank": 50,
      "isOwn": false,
      "name": "白い",
      "userCard": {
        "cardId": 109,
        "level": 60,
        "masterRank": 1,
        "specialTrainingStatus": "done",
        "defaultImage": "special_training"
      },
      "userProfile": {
        "userId": 7013358884962459000,
        "word": "無聊",
        "honorId1": 5,
        "honorLevel1": 4,
        "honorId2": 138,
        "honorLevel2": 1,
        "honorId3": 136,
        "honorLevel3": 1,
        "twitterId": "",
        "profileImageType": "leader"
      },
      "userCheerfulCarnival": {}
    }
  ],
  "rank100": [
    {
      "userId": 7016933203449585000,
      "score": 6120160,
      "rank": 100,
      "isOwn": false,
      "name": "奏小姐想睡覺(⌒▽⌒",
      "userCard": {
        "cardId": 109,
        "level": 60,
        "masterRank": 1,
        "specialTrainingStatus": "done",
        "defaultImage": "original"
      },
      "userProfile": {
        "userId": 7016933203449585000,
        "word": "寶石要沒了啦別衝了",
        "honorId1": 107,
        "honorLevel1": 1,
        "honorId2": 65,
        "honorLevel2": 2,
        "honorId3": 5,
        "honorLevel3": 2,
        "twitterId": "",
        "profileImageType": "leader"
      },
      "userCheerfulCarnival": {}
    }
  ],
  "rank200": [
    {
      "userId": 7018176745870401000,
      "score": 3543704,
      "rank": 200,
      "isOwn": false,
      "name": "WuDa",
      "userCard": {
        "cardId": 110,
        "level": 60,
        "masterRank": 1,
        "specialTrainingStatus": "done",
        "defaultImage": "special_training"
      },
      "userProfile": {
        "userId": 7018176745870401000,
        "word": "",
        "twitterId": "",
        "profileImageType": "leader"
      },
      "userCheerfulCarnival": {}
    }
  ],
  "rank300": [
    {
      "userId": 7013722356631772000,
      "score": 2937774,
      "rank": 300,
      "isOwn": false,
      "name": "亻尓女馬女馬白勺革力",
      "userCard": {
        "cardId": 88,
        "level": 60,
        "masterRank": 4,
        "specialTrainingStatus": "done",
        "defaultImage": "special_training"
      },
      "userProfile": {
        "userId": 7013722356631772000,
        "word": "",
        "honorId1": 130,
        "honorLevel1": 1,
        "honorId2": 107,
        "honorLevel2": 1,
        "honorId3": 136,
        "honorLevel3": 1,
        "twitterId": "",
        "profileImageType": "leader"
      },
      "userCheerfulCarnival": {}
    }
  ],
  "rank400": [
    {
      "userId": 7013925115968937000,
      "score": 2615665,
      "rank": 400,
      "isOwn": false,
      "name": "橘♤橘♡橘◇橘♧橘",
      "userCard": {
        "cardId": 109,
        "level": 60,
        "masterRank": 0,
        "specialTrainingStatus": "done",
        "defaultImage": "special_training"
      },
      "userProfile": {
        "userId": 7013925115968937000,
        "word": "今天沒有吃早餐",
        "honorId1": 532,
        "honorLevel1": 1,
        "honorId2": 65,
        "honorLevel2": 2,
        "honorId3": 81,
        "honorLevel3": 2,
        "twitterId": "",
        "profileImageType": "leader"
      },
      "userCheerfulCarnival": {}
    }
  ],
  "rank500": [
    {
      "userId": 7013526597756165000,
      "score": 2512002,
      "rank": 500,
      "isOwn": false,
      "name": "保500啊啊啊啊啊",
      "userCard": {
        "cardId": 92,
        "level": 60,
        "masterRank": 0,
        "specialTrainingStatus": "done",
        "defaultImage": "special_training"
      },
      "userProfile": {
        "userId": 7013526597756165000,
        "word": "",
        "honorId1": 93,
        "honorLevel1": 1,
        "honorId2": 85,
        "honorLevel2": 1,
        "honorId3": 81,
        "honorLevel3": 1,
        "twitterId": "",
        "profileImageType": "leader"
      },
      "userCheerfulCarnival": {}
    }
  ],
  "rank1000": [
    {
      "userId": 7013689975560674000,
      "score": 1961321,
      "rank": 1000,
      "isOwn": false,
      "name": "夜貓女",
      "userCard": {
        "cardId": 4,
        "level": 54,
        "masterRank": 0,
        "specialTrainingStatus": "done",
        "defaultImage": "special_training"
      },
      "userProfile": {
        "userId": 7013689975560674000,
        "word": "4星一歌終於來了(´∀｀)♡",
        "honorId1": 1,
        "honorLevel1": 2,
        "honorId2": 5,
        "honorLevel2": 1,
        "honorId3": 129,
        "honorLevel3": 1,
        "twitterId": "",
        "profileImageType": "leader"
      },
      "userCheerfulCarnival": {}
    }
  ],
  "rank2000": [
    {
      "userId": 7014850657454972000,
      "score": 1396181,
      "rank": 2000,
      "isOwn": false,
      "name": "魔界源",
      "userCard": {
        "cardId": 111,
        "level": 60,
        "masterRank": 0,
        "specialTrainingStatus": "done",
        "defaultImage": "special_training"
      },
      "userProfile": {
        "userId": 7014850657454972000,
        "word": "Lalisa",
        "honorId1": 129,
        "honorLevel1": 1,
        "honorId2": 534,
        "honorLevel2": 1,
        "honorId3": 130,
        "honorLevel3": 1,
        "twitterId": "",
        "profileImageType": "leader"
      },
      "userCheerfulCarnival": {}
    }
  ],
  "rank3000": [
    {
      "userId": 7015732070114778000,
      "score": 1202546,
      "rank": 3000,
      "isOwn": false,
      "name": "ユキカゼ二丁拳銃",
      "userCard": {
        "cardId": 110,
        "level": 56,
        "masterRank": 0,
        "specialTrainingStatus": "done",
        "defaultImage": "special_training"
      },
      "userProfile": {
        "userId": 7015732070114778000,
        "word": "",
        "honorId1": 1,
        "honorLevel1": 1,
        "honorId2": 127,
        "honorLevel2": 1,
        "honorId3": 133,
        "honorLevel3": 1,
        "twitterId": "",
        "profileImageType": "leader"
      },
      "userCheerfulCarnival": {}
    }
  ],
  "rank4000": [
    {
      "userId": 7014525888649846000,
      "score": 1085780,
      "rank": 4000,
      "isOwn": false,
      "name": "sabaki",
      "userCard": {
        "cardId": 3,
        "level": 50,
        "masterRank": 0,
        "specialTrainingStatus": "done",
        "defaultImage": "special_training"
      },
      "userProfile": {
        "userId": 7014525888649846000,
        "word": "",
        "honorId1": 1,
        "honorLevel1": 1,
        "honorId2": 138,
        "honorLevel2": 1,
        "honorId3": 127,
        "honorLevel3": 1,
        "twitterId": "",
        "profileImageType": "leader"
      },
      "userCheerfulCarnival": {}
    }
  ],
  "rank5000": [
    {
      "userId": 7017449488268942000,
      "score": 1024717,
      "rank": 5000,
      "isOwn": false,
      "name": "時雨",
      "userCard": {
        "cardId": 71,
        "level": 50,
        "masterRank": 0,
        "specialTrainingStatus": "done",
        "defaultImage": "special_training"
      },
      "userProfile": {
        "userId": 7017449488268942000,
        "word": "",
        "twitterId": "",
        "profileImageType": "leader"
      },
      "userCheerfulCarnival": {}
    }
  ],
  "rank10000": [
    {
      "userId": 7017020727274741000,
      "score": 701650,
      "rank": 10000,
      "isOwn": false,
      "name": "miya☆",
      "userCard": {
        "cardId": 63,
        "level": 50,
        "masterRank": 5,
        "specialTrainingStatus": "done",
        "defaultImage": "special_training"
      },
      "userProfile": {
        "userId": 7017020727274741000,
        "word": "类<33",
        "honorId1": 61,
        "honorLevel1": 2,
        "honorId2": 49,
        "honorLevel2": 1,
        "honorId3": 81,
        "honorLevel3": 1,
        "twitterId": "",
        "profileImageType": "leader"
      },
      "userCheerfulCarnival": {}
    }
  ],
  "rank20000": [
    {
      "userId": 7003108402528509000,
      "score": 443874,
      "rank": 20000,
      "isOwn": false,
      "name": "隨緣",
      "userCard": {
        "cardId": 92,
        "level": 60,
        "masterRank": 2,
        "specialTrainingStatus": "done",
        "defaultImage": "special_training"
      },
      "userProfile": {
        "userId": 7003108402528509000,
        "word": "主要玩日服，台服偶爾玩",
        "honorId1": 85,
        "honorLevel1": 1,
        "honorId2": 89,
        "honorLevel2": 1,
        "honorId3": 105,
        "honorLevel3": 1,
        "twitterId": "",
        "profileImageType": "leader"
      },
      "userCheerfulCarnival": {}
    }
  ],
  "rank30000": [
    {
      "userId": 7018796799649668000,
      "score": 326833,
      "rank": 30000,
      "isOwn": false,
      "name": "SHINOBI\"",
      "userCard": {
        "cardId": 109,
        "level": 57,
        "masterRank": 0,
        "specialTrainingStatus": "done",
        "defaultImage": "special_training"
      },
      "userProfile": {
        "userId": 7018796799649668000,
        "word": "",
        "honorId1": 129,
        "honorLevel1": 1,
        "twitterId": "",
        "profileImageType": "leader"
      },
      "userCheerfulCarnival": {}
    }
  ],
  "rank40000": [
    {
      "userId": 7016716422789307000,
      "score": 249837,
      "rank": 40000,
      "isOwn": false,
      "name": "瓦利",
      "userCard": {
        "cardId": 66,
        "level": 30,
        "masterRank": 1,
        "specialTrainingStatus": "not_doing",
        "defaultImage": "original"
      },
      "userProfile": {
        "userId": 7016716422789307000,
        "word": "",
        "honorId1": 65,
        "honorLevel1": 1,
        "twitterId": "",
        "profileImageType": "leader"
      },
      "userCheerfulCarnival": {}
    }
  ],
  "rank50000": [
    {
      "userId": 7018729523562782000,
      "score": 192839,
      "rank": 50000,
      "isOwn": false,
      "name": "雷斯提亞",
      "userCard": {
        "cardId": 67,
        "level": 12,
        "masterRank": 0,
        "specialTrainingStatus": "not_doing",
        "defaultImage": "original"
      },
      "userProfile": {
        "userId": 7018729523562782000,
        "word": "",
        "honorId1": 129,
        "honorLevel1": 1,
        "honorId2": 127,
        "honorLevel2": 1,
        "honorId3": 105,
        "honorLevel3": 1,
        "twitterId": "",
        "profileImageType": "leader"
      },
      "userCheerfulCarnival": {}
    }
  ],
  "rank100000": [
    {
      "userId": 7014858228366417000,
      "score": 43425,
      "rank": 100000,
      "isOwn": false,
      "name": "Nayrhong",
      "userCard": {
        "cardId": 86,
        "level": 26,
        "masterRank": 0,
        "specialTrainingStatus": "not_doing",
        "defaultImage": "original"
      },
      "userProfile": {
        "userId": 7014858228366417000,
        "word": "",
        "twitterId": "",
        "profileImageType": "leader"
      },
      "userCheerfulCarnival": {}
    }
  ]
}