{
  "time": 1637154958009,
  "first10": [
    {
      "userId": 7013830536976145000,
      "score": 23177479,
      "rank": 1,
      "isOwn": false,
      "name": "HAKUYA",
      "userCard": {
        "cardId": 124,
        "level": 60,
        "masterRank": 3,
        "specialTrainingStatus": "done",
        "defaultImage": "original"
      },
      "userProfile": {
        "userId": 7013830536976145000,
        "word": "想要FC全靠判定強化(๑•̀ㅂ•́)و✧",
        "honorId1": 304,
        "honorLevel1": 1,
        "honorId2": 269,
        "honorLevel2": 1,
        "honorId3": 196,
        "honorLevel3": 1,
        "twitterId": "",
        "profileImageType": "leader"
      },
      "userCheerfulCarnival": {}
    },
    {
      "userId": 7016042081546296000,
      "score": 18704786,
      "rank": 2,
      "isOwn": false,
      "name": "大家追ig一起玩錒 ",
      "userCard": {
        "cardId": 126,
        "level": 60,
        "masterRank": 5,
        "specialTrainingStatus": "done",
        "defaultImage": "special_training"
      },
      "userProfile": {
        "userId": 7016042081546296000,
        "word": "IG: ray10_15_       追IG一起玩錒",
        "honorId1": 261,
        "honorLevel1": 1,
        "honorId2": 189,
        "honorLevel2": 1,
        "honorId3": 232,
        "honorLevel3": 1,
        "twitterId": "",
        "profileImageType": "leader"
      },
      "userCheerfulCarnival": {}
    },
    {
      "userId": 7013658908749340000,
      "score": 18622866,
      "rank": 3,
      "isOwn": false,
      "name": "Haruya@台V",
      "userCard": {
        "cardId": 19,
        "level": 1,
        "masterRank": 0,
        "specialTrainingStatus": "not_doing",
        "defaultImage": "original"
      },
      "userProfile": {
        "userId": 7013658908749340000,
        "word": "笑夢我婆喇。YT：Haruya ch.緋尹夜はるや",
        "honorId1": 293,
        "honorLevel1": 1,
        "honorId2": 115,
        "honorLevel2": 1,
        "honorId3": 53,
        "honorLevel3": 5,
        "twitterId": "",
        "profileImageType": "leader"
      },
      "userCheerfulCarnival": {}
    },
    {
      "userId": 7013930982571286000,
      "score": 16410451,
      "rank": 4,
      "isOwn": false,
      "name": "霜月凜",
      "userCard": {
        "cardId": 124,
        "level": 60,
        "masterRank": 0,
        "specialTrainingStatus": "done",
        "defaultImage": "special_training"
      },
      "userProfile": {
        "userId": 7013930982571286000,
        "word": "haruya加油！",
        "honorId1": 182,
        "honorLevel1": 1,
        "honorId2": 1,
        "honorLevel2": 4,
        "twitterId": "",
        "profileImageType": "leader"
      },
      "userCheerfulCarnival": {}
    },
    {
      "userId": 7028199642894605000,
      "score": 13351001,
      "rank": 5,
      "isOwn": false,
      "name": "T9快來找我瑟瑟(?",
      "userCard": {
        "cardId": 125,
        "level": 60,
        "masterRank": 0,
        "specialTrainingStatus": "done",
        "defaultImage": "special_training"
      },
      "userProfile": {
        "userId": 7028199642894605000,
        "word": "朋友你來了！我們要一起出道誒:3",
        "honorId1": 210,
        "honorLevel1": 2,
        "honorId2": 142,
        "honorLevel2": 1,
        "honorId3": 114,
        "honorLevel3": 1,
        "twitterId": "",
        "profileImageType": "leader"
      },
      "userCheerfulCarnival": {}
    },
    {
      "userId": 7017487741482982000,
      "score": 13140909,
      "rank": 6,
      "isOwn": false,
      "name": "Emu@大家辛苦了",
      "userCard": {
        "cardId": 124,
        "level": 60,
        "masterRank": 2,
        "specialTrainingStatus": "done",
        "defaultImage": "original"
      },
      "userProfile": {
        "userId": 7017487741482982000,
        "word": "0909是Emu生日喔！",
        "honorId1": 53,
        "honorLevel1": 4,
        "twitterId": "",
        "profileImageType": "leader"
      },
      "userCheerfulCarnival": {}
    },
    {
      "userId": 7015259952126303000,
      "score": 13027997,
      "rank": 7,
      "isOwn": false,
      "name": "恋",
      "userCard": {
        "cardId": 126,
        "level": 60,
        "masterRank": 5,
        "specialTrainingStatus": "done",
        "defaultImage": "special_training"
      },
      "userProfile": {
        "userId": 7015259952126303000,
        "word": "",
        "honorId1": 261,
        "honorLevel1": 1,
        "honorId2": 81,
        "honorLevel2": 4,
        "honorId3": 131,
        "honorLevel3": 1,
        "twitterId": "",
        "profileImageType": "leader"
      },
      "userCheerfulCarnival": {}
    },
    {
      "userId": 7013968453182823000,
      "score": 10643158,
      "rank": 8,
      "isOwn": false,
      "name": "聊囉康",
      "userCard": {
        "cardId": 126,
        "level": 60,
        "masterRank": 0,
        "specialTrainingStatus": "done",
        "defaultImage": "original"
      },
      "userProfile": {
        "userId": 7013968453182823000,
        "word": "心還是有點痛，但願有下個更好的另一半",
        "honorId1": 282,
        "honorLevel1": 1,
        "honorId2": 146,
        "honorLevel2": 1,
        "honorId3": 113,
        "honorLevel3": 1,
        "twitterId": "",
        "profileImageType": "leader"
      },
      "userCheerfulCarnival": {}
    },
    {
      "userId": 7028473716560535000,
      "score": 10488991,
      "rank": 9,
      "isOwn": false,
      "name": "養肝養肝",
      "userCard": {
        "cardId": 126,
        "level": 60,
        "masterRank": 0,
        "specialTrainingStatus": "done",
        "defaultImage": "special_training"
      },
      "userProfile": {
        "userId": 7028473716560535000,
        "word": "養肝期，休閑打，目標真皆",
        "honorId1": 73,
        "honorLevel1": 2,
        "twitterId": "",
        "profileImageType": "leader"
      },
      "userCheerfulCarnival": {}
    },
    {
      "userId": 7027375467401420000,
      "score": 10443119,
      "rank": 10,
      "isOwn": false,
      "name": "❀星野ღミナ❀",
      "userCard": {
        "cardId": 6,
        "level": 30,
        "masterRank": 5,
        "specialTrainingStatus": "not_doing",
        "defaultImage": "original"
      },
      "userProfile": {
        "userId": 7027375467401420000,
        "word": "從日服來的新手ʕ •ᴥ•ʔ IG:zhongyu_06_08",
        "honorId1": 108,
        "honorLevel1": 1,
        "honorId2": 81,
        "honorLevel2": 3,
        "honorId3": 300,
        "honorLevel3": 1,
        "twitterId": "",
        "profileImageType": "leader"
      },
      "userCheerfulCarnival": {}
    }
  ],
  "rank20": [
    {
      "userId": 7013611018425376000,
      "score": 6301946,
      "rank": 20,
      "isOwn": false,
      "name": "守住二十牌就歇逼了",
      "userCard": {
        "cardId": 53,
        "level": 20,
        "masterRank": 0,
        "specialTrainingStatus": "not_doing",
        "defaultImage": "original"
      },
      "userProfile": {
        "userId": 7013611018425376000,
        "word": "杏心羽/彰冬/all笑梦all(宁梦宁不磕)，只加cp同好",
        "honorId1": 53,
        "honorLevel1": 2,
        "honorId2": 37,
        "honorLevel2": 1,
        "honorId3": 33,
        "honorLevel3": 1,
        "twitterId": "",
        "profileImageType": "leader"
      },
      "userCheerfulCarnival": {}
    }
  ],
  "rank30": [
    {
      "userId": 7022146747069701000,
      "score": 5595636,
      "rank": 30,
      "isOwn": false,
      "name": "kuyu",
      "userCard": {
        "cardId": 118,
        "level": 30,
        "masterRank": 5,
        "specialTrainingStatus": "not_doing",
        "defaultImage": "original"
      },
      "userProfile": {
        "userId": 7022146747069701000,
        "word": "イベラン中! 40位目標",
        "honorId1": 73,
        "honorLevel1": 3,
        "honorId2": 123,
        "honorLevel2": 1,
        "honorId3": 89,
        "honorLevel3": 1,
        "twitterId": "",
        "profileImageType": "leader"
      },
      "userCheerfulCarnival": {}
    }
  ],
  "rank40": [
    {
      "userId": 7016768155221515000,
      "score": 4832500,
      "rank": 40,
      "isOwn": false,
      "name": "跟著初音打倒共產黨",
      "userCard": {
        "cardId": 124,
        "level": 60,
        "masterRank": 0,
        "specialTrainingStatus": "done",
        "defaultImage": "special_training"
      },
      "userProfile": {
        "userId": 7016768155221515000,
        "word": "可以不要選master然後死掉嗎？",
        "honorId1": 269,
        "honorLevel1": 1,
        "honorId2": 65,
        "honorLevel2": 3,
        "honorId3": 73,
        "honorLevel3": 2,
        "twitterId": "",
        "profileImageType": "leader"
      },
      "userCheerfulCarnival": {}
    }
  ],
  "rank50": [
    {
      "userId": 7015948308199988000,
      "score": 4446499,
      "rank": 50,
      "isOwn": false,
      "name": "擁有的幸福",
      "userCard": {
        "cardId": 87,
        "level": 50,
        "masterRank": 5,
        "specialTrainingStatus": "done",
        "defaultImage": "special_training"
      },
      "userProfile": {
        "userId": 7015948308199988000,
        "word": "",
        "honorId1": 53,
        "honorLevel1": 2,
        "honorId2": 69,
        "honorLevel2": 2,
        "honorId3": 81,
        "honorLevel3": 4,
        "twitterId": "",
        "profileImageType": "leader"
      },
      "userCheerfulCarnival": {}
    }
  ],
  "rank100": [
    {
      "userId": 7019994652988169000,
      "score": 3169228,
      "rank": 100,
      "isOwn": false,
      "name": "小江",
      "userCard": {
        "cardId": 6,
        "level": 30,
        "masterRank": 5,
        "specialTrainingStatus": "not_doing",
        "defaultImage": "original"
      },
      "userProfile": {
        "userId": 7019994652988169000,
        "word": "手殘黨QAQ",
        "honorId1": 274,
        "honorLevel1": 1,
        "honorId2": 17,
        "honorLevel2": 2,
        "honorId3": 81,
        "honorLevel3": 2,
        "twitterId": "",
        "profileImageType": "leader"
      },
      "userCheerfulCarnival": {}
    }
  ],
  "rank200": [
    {
      "userId": 7013671228888096000,
      "score": 2040661,
      "rank": 200,
      "isOwn": false,
      "name": "Cizox",
      "userCard": {
        "cardId": 126,
        "level": 60,
        "masterRank": 0,
        "specialTrainingStatus": "done",
        "defaultImage": "special_training"
      },
      "userProfile": {
        "userId": 7013671228888096000,
        "word": "嗨嗨",
        "honorId1": 85,
        "honorLevel1": 3,
        "honorId2": 133,
        "honorLevel2": 1,
        "honorId3": 5,
        "honorLevel3": 2,
        "twitterId": "",
        "profileImageType": "leader"
      },
      "userCheerfulCarnival": {}
    }
  ],
  "rank300": [
    {
      "userId": 7024412109257694000,
      "score": 1741338,
      "rank": 300,
      "isOwn": false,
      "name": "Element",
      "userCard": {
        "cardId": 124,
        "level": 60,
        "masterRank": 0,
        "specialTrainingStatus": "done",
        "defaultImage": "original"
      },
      "userProfile": {
        "userId": 7024412109257694000,
        "word": "",
        "honorId1": 222,
        "honorLevel1": 1,
        "honorId2": 65,
        "honorLevel2": 1,
        "honorId3": 69,
        "honorLevel3": 3,
        "twitterId": "",
        "profileImageType": "leader"
      },
      "userCheerfulCarnival": {}
    }
  ],
  "rank400": [
    {
      "userId": 7013750612810538000,
      "score": 1640237,
      "rank": 400,
      "isOwn": false,
      "name": "609748xkcv",
      "userCard": {
        "cardId": 126,
        "level": 60,
        "masterRank": 0,
        "specialTrainingStatus": "done",
        "defaultImage": "special_training"
      },
      "userProfile": {
        "userId": 7013750612810538000,
        "word": "主職Arcaea 308 312 305 掉幀掉滑計劃",
        "honorId1": 1,
        "honorLevel1": 4,
        "honorId2": 267,
        "honorLevel2": 1,
        "honorId3": 123,
        "honorLevel3": 1,
        "twitterId": "",
        "profileImageType": "leader"
      },
      "userCheerfulCarnival": {}
    }
  ],
  "rank500": [
    {
      "userId": 7013572187105811000,
      "score": 1606864,
      "rank": 500,
      "isOwn": false,
      "name": "かなた",
      "userCard": {
        "cardId": 114,
        "level": 60,
        "masterRank": 0,
        "specialTrainingStatus": "done",
        "defaultImage": "special_training"
      },
      "userProfile": {
        "userId": 7013572187105811000,
        "word": "尋永下去",
        "honorId1": 81,
        "honorLevel1": 4,
        "honorId2": 65,
        "honorLevel2": 2,
        "honorId3": 235,
        "honorLevel3": 1,
        "twitterId": "",
        "profileImageType": "leader"
      },
      "userCheerfulCarnival": {}
    }
  ],
  "rank1000": [
    {
      "userId": 7014367553271356000,
      "score": 1326088,
      "rank": 1000,
      "isOwn": false,
      "name": "小波",
      "userCard": {
        "cardId": 53,
        "level": 20,
        "masterRank": 5,
        "specialTrainingStatus": "not_doing",
        "defaultImage": "original"
      },
      "userProfile": {
        "userId": 7014367553271356000,
        "word": "",
        "honorId1": 53,
        "honorLevel1": 2,
        "honorId2": 277,
        "honorLevel2": 1,
        "honorId3": 295,
        "honorLevel3": 1,
        "twitterId": "",
        "profileImageType": "leader"
      },
      "userCheerfulCarnival": {}
    }
  ],
  "rank2000": [
    {
      "userId": 7013607088488455000,
      "score": 1063153,
      "rank": 2000,
      "isOwn": false,
      "name": "無名人士",
      "userCard": {
        "cardId": 99,
        "level": 50,
        "masterRank": 0,
        "specialTrainingStatus": "done",
        "defaultImage": "original"
      },
      "userProfile": {
        "userId": 7013607088488455000,
        "word": "巡音好讚",
        "honorId1": 123,
        "honorLevel1": 1,
        "honorId2": 93,
        "honorLevel2": 3,
        "honorId3": 294,
        "honorLevel3": 1,
        "twitterId": "",
        "profileImageType": "leader"
      },
      "userCheerfulCarnival": {}
    }
  ],
  "rank3000": [
    {
      "userId": 7015435051861220000,
      "score": 951727,
      "rank": 3000,
      "isOwn": false,
      "name": "<i>光</i>",
      "userCard": {
        "cardId": 6,
        "level": 30,
        "masterRank": 0,
        "specialTrainingStatus": "not_doing",
        "defaultImage": "original"
      },
      "userProfile": {
        "userId": 7015435051861220000,
        "word": "",
        "honorId1": 294,
        "honorLevel1": 1,
        "honorId2": 81,
        "honorLevel2": 3,
        "honorId3": 114,
        "honorLevel3": 1,
        "twitterId": "",
        "profileImageType": "leader"
      },
      "userCheerfulCarnival": {}
    }
  ],
  "rank4000": [
    {
      "userId": 7019333836110700000,
      "score": 877222,
      "rank": 4000,
      "isOwn": false,
      "name": "snowsakura",
      "userCard": {
        "cardId": 125,
        "level": 60,
        "masterRank": 0,
        "specialTrainingStatus": "done",
        "defaultImage": "special_training"
      },
      "userProfile": {
        "userId": 7019333836110700000,
        "word": "想要限定四星的啦～～～～～",
        "honorId1": 298,
        "honorLevel1": 1,
        "honorId2": 274,
        "honorLevel2": 1,
        "honorId3": 201,
        "honorLevel3": 1,
        "twitterId": "",
        "profileImageType": "leader"
      },
      "userCheerfulCarnival": {}
    }
  ],
  "rank5000": [
    {
      "userId": 7019303016914443000,
      "score": 830747,
      "rank": 5000,
      "isOwn": false,
      "name": "卯月よっか",
      "userCard": {
        "cardId": 114,
        "level": 60,
        "masterRank": 0,
        "specialTrainingStatus": "done",
        "defaultImage": "special_training"
      },
      "userProfile": {
        "userId": 7019303016914443000,
        "word": "",
        "honorId1": 65,
        "honorLevel1": 1,
        "honorId2": 130,
        "honorLevel2": 1,
        "honorId3": 129,
        "honorLevel3": 1,
        "twitterId": "",
        "profileImageType": "leader"
      },
      "userCheerfulCarnival": {}
    }
  ],
  "rank10000": [
    {
      "userId": 7026357144157134000,
      "score": 572059,
      "rank": 10000,
      "isOwn": false,
      "name": "ユイ、拇指起來嗨",
      "userCard": {
        "cardId": 124,
        "level": 57,
        "masterRank": 0,
        "specialTrainingStatus": "done",
        "defaultImage": "special_training"
      },
      "userProfile": {
        "userId": 7026357144157134000,
        "word": "",
        "honorId1": 37,
        "honorLevel1": 1,
        "honorId2": 1,
        "honorLevel2": 1,
        "honorId3": 77,
        "honorLevel3": 1,
        "twitterId": "",
        "profileImageType": "leader"
      },
      "userCheerfulCarnival": {}
    }
  ],
  "rank20000": [
    {
      "userId": 7024466195709566000,
      "score": 348559,
      "rank": 20000,
      "isOwn": false,
      "name": "我只會玩hard",
      "userCard": {
        "cardId": 124,
        "level": 60,
        "masterRank": 0,
        "specialTrainingStatus": "done",
        "defaultImage": "special_training"
      },
      "userProfile": {
        "userId": 7024466195709566000,
        "word": "",
        "honorId1": 77,
        "honorLevel1": 1,
        "honorId2": 81,
        "honorLevel2": 1,
        "honorId3": 65,
        "honorLevel3": 1,
        "twitterId": "",
        "profileImageType": "leader"
      },
      "userCheerfulCarnival": {}
    }
  ],
  "rank30000": [
    {
      "userId": 7013481302208962000,
      "score": 249888,
      "rank": 30000,
      "isOwn": false,
      "name": "Kirito",
      "userCard": {
        "cardId": 88,
        "level": 60,
        "masterRank": 0,
        "specialTrainingStatus": "done",
        "defaultImage": "special_training"
      },
      "userProfile": {
        "userId": 7013481302208962000,
        "word": "",
        "honorId1": 21,
        "honorLevel1": 1,
        "honorId2": 81,
        "honorLevel2": 2,
        "honorId3": 138,
        "honorLevel3": 1,
        "twitterId": "",
        "profileImageType": "leader"
      },
      "userCheerfulCarnival": {}
    }
  ],
  "rank40000": [
    {
      "userId": 7013663920015580000,
      "score": 181441,
      "rank": 40000,
      "isOwn": false,
      "name": "櫻白あおい",
      "userCard": {
        "cardId": 31,
        "level": 7,
        "masterRank": 0,
        "specialTrainingStatus": "not_doing",
        "defaultImage": "original"
      },
      "userProfile": {
        "userId": 7013663920015580000,
        "word": "鏡音連我的！",
        "honorId1": 89,
        "honorLevel1": 2,
        "honorId2": 304,
        "honorLevel2": 1,
        "honorId3": 145,
        "honorLevel3": 1,
        "twitterId": "",
        "profileImageType": "leader"
      },
      "userCheerfulCarnival": {}
    }
  ],
  "rank50000": [
    {
      "userId": 7014097166465621000,
      "score": 126400,
      "rank": 50000,
      "isOwn": false,
      "name": "粗陰欸來",
      "userCard": {
        "cardId": 126,
        "level": 15,
        "masterRank": 0,
        "specialTrainingStatus": "not_doing",
        "defaultImage": "original"
      },
      "userProfile": {
        "userId": 7014097166465621000,
        "profileImageType": "leader"
      },
      "userCheerfulCarnival": {}
    }
  ],
  "rank100000": [
    {
      "userId": 7013762321214578000,
      "score": 13080,
      "rank": 100000,
      "isOwn": false,
      "name": "一團玥玥",
      "userCard": {
        "cardId": 92,
        "level": 60,
        "masterRank": 0,
        "specialTrainingStatus": "done",
        "defaultImage": "special_training"
      },
      "userProfile": {
        "userId": 7013762321214578000,
        "word": "",
        "honorId1": 85,
        "honorLevel1": 1,
        "twitterId": "",
        "profileImageType": "leader"
      },
      "userCheerfulCarnival": {}
    }
  ]
}